<?xml version="1.0" encoding="UTF-8" ?>
<testsuite tests="9" failures="0" name="com.roo.esperanza.domain.InstitutionIntegrationTest" time="0.232" errors="1" skipped="0">
  <properties>
    <property name="java.runtime.name" value="Java(TM) SE Runtime Environment"/>
    <property name="sun.boot.library.path" value="/Library/Java/JavaVirtualMachines/jdk1.8.0_65.jdk/Contents/Home/jre/lib"/>
    <property name="java.vm.version" value="25.65-b01"/>
    <property name="user.country.format" value="AR"/>
    <property name="gopherProxySet" value="false"/>
    <property name="java.vm.vendor" value="Oracle Corporation"/>
    <property name="maven.multiModuleProjectDirectory" value="/Users/admin/Documents/workspace/trabajoFinal/Implementacion/Esperanza"/>
    <property name="java.vendor.url" value="http://java.oracle.com/"/>
    <property name="path.separator" value=":"/>
    <property name="guice.disable.misplaced.annotation.check" value="true"/>
    <property name="java.vm.name" value="Java HotSpot(TM) 64-Bit Server VM"/>
    <property name="file.encoding.pkg" value="sun.io"/>
    <property name="user.country" value="ES"/>
    <property name="sun.java.launcher" value="SUN_STANDARD"/>
    <property name="sun.os.patch.level" value="unknown"/>
    <property name="java.vm.specification.name" value="Java Virtual Machine Specification"/>
    <property name="user.dir" value="/Users/admin/Documents/workspace/trabajoFinal/Implementacion/Esperanza"/>
    <property name="java.runtime.version" value="1.8.0_65-b17"/>
    <property name="java.awt.graphicsenv" value="sun.awt.CGraphicsEnvironment"/>
    <property name="java.endorsed.dirs" value="/Library/Java/JavaVirtualMachines/jdk1.8.0_65.jdk/Contents/Home/jre/lib/endorsed"/>
    <property name="os.arch" value="x86_64"/>
    <property name="java.io.tmpdir" value="/var/folders/_6/p8ltxxnd3cjf19y18dvmfhrm0000gn/T/"/>
    <property name="line.separator" value="
"/>
    <property name="java.vm.specification.vendor" value="Oracle Corporation"/>
    <property name="os.name" value="Mac OS X"/>
    <property name="classworlds.conf" value="/Users/admin/Documents/apache-maven-3.3.3/bin/m2.conf"/>
    <property name="sun.jnu.encoding" value="UTF-8"/>
    <property name="java.library.path" value="/Users/admin/Library/Java/Extensions:/Library/Java/Extensions:/Network/Library/Java/Extensions:/System/Library/Java/Extensions:/usr/lib/java:."/>
    <property name="java.specification.name" value="Java Platform API Specification"/>
    <property name="java.class.version" value="52.0"/>
    <property name="sun.management.compiler" value="HotSpot 64-Bit Tiered Compilers"/>
    <property name="os.version" value="10.11.4"/>
    <property name="http.nonProxyHosts" value="local|*.local|169.254/16|*.169.254/16"/>
    <property name="user.home" value="/Users/admin"/>
    <property name="user.timezone" value="America/Argentina/Buenos_Aires"/>
    <property name="java.awt.printerjob" value="sun.lwawt.macosx.CPrinterJob"/>
    <property name="java.specification.version" value="1.8"/>
    <property name="file.encoding" value="UTF-8"/>
    <property name="user.name" value="admin"/>
    <property name="java.class.path" value="/Users/admin/Documents/apache-maven-3.3.3/boot/plexus-classworlds-2.5.2.jar"/>
    <property name="java.vm.specification.version" value="1.8"/>
    <property name="sun.arch.data.model" value="64"/>
    <property name="java.home" value="/Library/Java/JavaVirtualMachines/jdk1.8.0_65.jdk/Contents/Home/jre"/>
    <property name="sun.java.command" value="org.codehaus.plexus.classworlds.launcher.Launcher clean install"/>
    <property name="java.specification.vendor" value="Oracle Corporation"/>
    <property name="user.language" value="es"/>
    <property name="awt.toolkit" value="sun.lwawt.macosx.LWCToolkit"/>
    <property name="java.vm.info" value="mixed mode"/>
    <property name="java.version" value="1.8.0_65"/>
    <property name="java.ext.dirs" value="/Users/admin/Library/Java/Extensions:/Library/Java/JavaVirtualMachines/jdk1.8.0_65.jdk/Contents/Home/jre/lib/ext:/Library/Java/Extensions:/Network/Library/Java/Extensions:/System/Library/Java/Extensions:/usr/lib/java"/>
    <property name="sun.boot.class.path" value="/Library/Java/JavaVirtualMachines/jdk1.8.0_65.jdk/Contents/Home/jre/lib/resources.jar:/Library/Java/JavaVirtualMachines/jdk1.8.0_65.jdk/Contents/Home/jre/lib/rt.jar:/Library/Java/JavaVirtualMachines/jdk1.8.0_65.jdk/Contents/Home/jre/lib/sunrsasign.jar:/Library/Java/JavaVirtualMachines/jdk1.8.0_65.jdk/Contents/Home/jre/lib/jsse.jar:/Library/Java/JavaVirtualMachines/jdk1.8.0_65.jdk/Contents/Home/jre/lib/jce.jar:/Library/Java/JavaVirtualMachines/jdk1.8.0_65.jdk/Contents/Home/jre/lib/charsets.jar:/Library/Java/JavaVirtualMachines/jdk1.8.0_65.jdk/Contents/Home/jre/lib/jfr.jar:/Library/Java/JavaVirtualMachines/jdk1.8.0_65.jdk/Contents/Home/jre/classes"/>
    <property name="java.vendor" value="Oracle Corporation"/>
    <property name="maven.home" value="/Users/admin/Documents/apache-maven-3.3.3"/>
    <property name="file.separator" value="/"/>
    <property name="java.vendor.url.bug" value="http://bugreport.sun.com/bugreport/"/>
    <property name="sun.cpu.endian" value="little"/>
    <property name="sun.io.unicode.encoding" value="UnicodeBig"/>
    <property name="socksNonProxyHosts" value="local|*.local|169.254/16|*.169.254/16"/>
    <property name="ftp.nonProxyHosts" value="local|*.local|169.254/16|*.169.254/16"/>
    <property name="sun.cpu.isalist" value=""/>
  </properties>
  <testcase classname="com.roo.esperanza.domain.InstitutionIntegrationTest" name="testFlush" time="0.034"/>
  <testcase classname="com.roo.esperanza.domain.InstitutionIntegrationTest" name="testPersist" time="0.022"/>
  <testcase classname="com.roo.esperanza.domain.InstitutionIntegrationTest" name="testMarkerMethod" time="0.004"/>
  <testcase classname="com.roo.esperanza.domain.InstitutionIntegrationTest" name="testMergeUpdate" time="0.024"/>
  <testcase classname="com.roo.esperanza.domain.InstitutionIntegrationTest" name="testCountInstitutions" time="0.021"/>
  <testcase classname="com.roo.esperanza.domain.InstitutionIntegrationTest" name="testFindAllInstitutions" time="0.025"/>
  <testcase classname="com.roo.esperanza.domain.InstitutionIntegrationTest" name="testFindInstitutionEntries" time="0.021"/>
  <testcase classname="com.roo.esperanza.domain.InstitutionIntegrationTest" name="testRemove" time="0.063">
    <error message="Row was updated or deleted by another transaction (or unsaved-value mapping was incorrect) : [com.roo.esperanza.domain.Multimedia#4]; nested exception is javax.persistence.OptimisticLockException: Row was updated or deleted by another transaction (or unsaved-value mapping was incorrect) : [com.roo.esperanza.domain.Multimedia#4]" type="org.springframework.orm.jpa.JpaOptimisticLockingFailureException">org.springframework.orm.jpa.JpaOptimisticLockingFailureException: Row was updated or deleted by another transaction (or unsaved-value mapping was incorrect) : [com.roo.esperanza.domain.Multimedia#4]; nested exception is javax.persistence.OptimisticLockException: Row was updated or deleted by another transaction (or unsaved-value mapping was incorrect) : [com.roo.esperanza.domain.Multimedia#4]
	at org.springframework.orm.jpa.EntityManagerFactoryUtils.convertJpaAccessExceptionIfPossible(EntityManagerFactoryUtils.java:310)
	at org.springframework.orm.jpa.aspectj.JpaExceptionTranslatorAspect.ajc$afterThrowing$org_springframework_orm_jpa_aspectj_JpaExceptionTranslatorAspect$1$18a1ac9(JpaExceptionTranslatorAspect.aj:33)
	at com.roo.esperanza.domain.Participant_Roo_Jpa_ActiveRecord.flush_aroundBody18(Participant_Roo_Jpa_ActiveRecord.aj:85)
	at com.roo.esperanza.domain.Participant_Roo_Jpa_ActiveRecord$AjcClosure19.run(Participant_Roo_Jpa_ActiveRecord.aj:1)
	at org.springframework.transaction.aspectj.AbstractTransactionAspect.ajc$around$org_springframework_transaction_aspectj_AbstractTransactionAspect$1$2a73e96cproceed(AbstractTransactionAspect.aj:59)
	at org.springframework.transaction.aspectj.AbstractTransactionAspect$AbstractTransactionAspect$1.proceedWithInvocation(AbstractTransactionAspect.aj:65)
	at org.springframework.transaction.interceptor.TransactionAspectSupport.invokeWithinTransaction(TransactionAspectSupport.java:260)
	at org.springframework.transaction.aspectj.AbstractTransactionAspect.ajc$around$org_springframework_transaction_aspectj_AbstractTransactionAspect$1$2a73e96c(AbstractTransactionAspect.aj:63)
	at com.roo.esperanza.domain.Participant_Roo_Jpa_ActiveRecord.ajc$interMethod$com_roo_esperanza_domain_Participant_Roo_Jpa_ActiveRecord$com_roo_esperanza_domain_Participant$flush(Participant_Roo_Jpa_ActiveRecord.aj:83)
	at com.roo.esperanza.domain.Participant.flush(Participant.java:1)
	at com.roo.esperanza.domain.InstitutionIntegrationTest_Roo_IntegrationTest.ajc$interMethod$com_roo_esperanza_domain_InstitutionIntegrationTest_Roo_IntegrationTest$com_roo_esperanza_domain_InstitutionIntegrationTest$testRemove(InstitutionIntegrationTest_Roo_IntegrationTest.aj:129)
	at com.roo.esperanza.domain.InstitutionIntegrationTest.testRemove(InstitutionIntegrationTest.java:1)
	at sun.reflect.NativeMethodAccessorImpl.invoke0(Native Method)
	at sun.reflect.NativeMethodAccessorImpl.invoke(NativeMethodAccessorImpl.java:62)
	at sun.reflect.DelegatingMethodAccessorImpl.invoke(DelegatingMethodAccessorImpl.java:43)
	at java.lang.reflect.Method.invoke(Method.java:497)
	at org.junit.runners.model.FrameworkMethod$1.runReflectiveCall(FrameworkMethod.java:47)
	at org.junit.internal.runners.model.ReflectiveCallable.run(ReflectiveCallable.java:12)
	at org.junit.runners.model.FrameworkMethod.invokeExplosively(FrameworkMethod.java:44)
	at org.junit.internal.runners.statements.InvokeMethod.evaluate(InvokeMethod.java:17)
	at org.springframework.test.context.junit4.statements.RunBeforeTestMethodCallbacks.evaluate(RunBeforeTestMethodCallbacks.java:74)
	at org.springframework.test.context.junit4.statements.RunAfterTestMethodCallbacks.evaluate(RunAfterTestMethodCallbacks.java:83)
	at org.springframework.test.context.junit4.statements.SpringRepeat.evaluate(SpringRepeat.java:72)
	at org.springframework.test.context.junit4.SpringJUnit4ClassRunner.runChild(SpringJUnit4ClassRunner.java:231)
	at org.springframework.test.context.junit4.SpringJUnit4ClassRunner.runChild(SpringJUnit4ClassRunner.java:88)
	at org.junit.runners.ParentRunner$3.run(ParentRunner.java:238)
	at org.junit.runners.ParentRunner$1.schedule(ParentRunner.java:63)
	at org.junit.runners.ParentRunner.runChildren(ParentRunner.java:236)
	at org.junit.runners.ParentRunner.access$000(ParentRunner.java:53)
	at org.junit.runners.ParentRunner$2.evaluate(ParentRunner.java:229)
	at org.springframework.test.context.junit4.statements.RunBeforeTestClassCallbacks.evaluate(RunBeforeTestClassCallbacks.java:61)
	at org.springframework.test.context.junit4.statements.RunAfterTestClassCallbacks.evaluate(RunAfterTestClassCallbacks.java:71)
	at org.junit.runners.ParentRunner.run(ParentRunner.java:309)
	at org.springframework.test.context.junit4.SpringJUnit4ClassRunner.run(SpringJUnit4ClassRunner.java:174)
	at org.apache.maven.surefire.junit4.JUnit4Provider.execute(JUnit4Provider.java:236)
	at org.apache.maven.surefire.junit4.JUnit4Provider.executeTestSet(JUnit4Provider.java:134)
	at org.apache.maven.surefire.junit4.JUnit4Provider.invoke(JUnit4Provider.java:113)
	at sun.reflect.NativeMethodAccessorImpl.invoke0(Native Method)
	at sun.reflect.NativeMethodAccessorImpl.invoke(NativeMethodAccessorImpl.java:62)
	at sun.reflect.DelegatingMethodAccessorImpl.invoke(DelegatingMethodAccessorImpl.java:43)
	at java.lang.reflect.Method.invoke(Method.java:497)
	at org.apache.maven.surefire.util.ReflectionUtils.invokeMethodWithArray(ReflectionUtils.java:189)
	at org.apache.maven.surefire.booter.ProviderFactory$ProviderProxy.invoke(ProviderFactory.java:165)
	at org.apache.maven.surefire.booter.ProviderFactory.invokeProvider(ProviderFactory.java:85)
	at org.apache.maven.surefire.booter.ForkedBooter.runSuitesInProcess(ForkedBooter.java:103)
	at org.apache.maven.surefire.booter.ForkedBooter.main(ForkedBooter.java:74)
Caused by: javax.persistence.OptimisticLockException: Row was updated or deleted by another transaction (or unsaved-value mapping was incorrect) : [com.roo.esperanza.domain.Multimedia#4]
	at org.hibernate.jpa.spi.AbstractEntityManagerImpl.wrapStaleStateException(AbstractEntityManagerImpl.java:1792)
	at org.hibernate.jpa.spi.AbstractEntityManagerImpl.convert(AbstractEntityManagerImpl.java:1705)
	at org.hibernate.jpa.spi.AbstractEntityManagerImpl.convert(AbstractEntityManagerImpl.java:1677)
	at org.hibernate.jpa.spi.AbstractEntityManagerImpl.convert(AbstractEntityManagerImpl.java:1683)
	at org.hibernate.jpa.spi.AbstractEntityManagerImpl.flush(AbstractEntityManagerImpl.java:1338)
	at sun.reflect.GeneratedMethodAccessor17.invoke(Unknown Source)
	at sun.reflect.DelegatingMethodAccessorImpl.invoke(DelegatingMethodAccessorImpl.java:43)
	at java.lang.reflect.Method.invoke(Method.java:497)
	at org.springframework.orm.jpa.SharedEntityManagerCreator$SharedEntityManagerInvocationHandler.invoke(SharedEntityManagerCreator.java:241)
	at com.sun.proxy.$Proxy42.flush(Unknown Source)
	... 44 more
Caused by: org.hibernate.StaleObjectStateException: Row was updated or deleted by another transaction (or unsaved-value mapping was incorrect) : [com.roo.esperanza.domain.Multimedia#4]
	at org.hibernate.persister.entity.AbstractEntityPersister.check(AbstractEntityPersister.java:2541)
	at org.hibernate.persister.entity.AbstractEntityPersister.delete(AbstractEntityPersister.java:3403)
	at org.hibernate.persister.entity.AbstractEntityPersister.delete(AbstractEntityPersister.java:3630)
	at org.hibernate.action.internal.EntityDeleteAction.execute(EntityDeleteAction.java:114)
	at org.hibernate.engine.spi.ActionQueue.executeActions(ActionQueue.java:463)
	at org.hibernate.engine.spi.ActionQueue.executeActions(ActionQueue.java:349)
	at org.hibernate.event.internal.AbstractFlushingEventListener.performExecutions(AbstractFlushingEventListener.java:350)
	at org.hibernate.event.internal.DefaultFlushEventListener.onFlush(DefaultFlushEventListener.java:56)
	at org.hibernate.internal.SessionImpl.flush(SessionImpl.java:1222)
	at org.hibernate.jpa.spi.AbstractEntityManagerImpl.flush(AbstractEntityManagerImpl.java:1335)
	... 49 more
</error>
    <system-out>2016-05-04 19:13:13,205 [main] DEBUG org.springframework.test.annotation.ProfileValueUtils - Retrieved @ProfileValueSourceConfiguration [null] for test class [com.roo.esperanza.domain.InstitutionIntegrationTest]
2016-05-04 19:13:13,205 [main] DEBUG org.springframework.test.annotation.ProfileValueUtils - Retrieved ProfileValueSource type [class org.springframework.test.annotation.SystemProfileValueSource] for class [com.roo.esperanza.domain.InstitutionIntegrationTest]
2016-05-04 19:13:13,205 [main] DEBUG org.springframework.beans.factory.annotation.InjectionMetadata - Processing injected method of bean &apos;com.roo.esperanza.domain.InstitutionIntegrationTest&apos;: AutowiredFieldElement for com.roo.esperanza.domain.InstitutionDataOnDemand com.roo.esperanza.domain.InstitutionIntegrationTest.dod
2016-05-04 19:13:13,205 [main] DEBUG org.springframework.beans.factory.support.DefaultListableBeanFactory - Returning cached instance of singleton bean &apos;institutionDataOnDemand&apos;
2016-05-04 19:13:13,205 [main] DEBUG org.springframework.test.context.support.DependencyInjectionTestExecutionListener - Performing dependency injection for test context [[TestContext@2d9de284 testClass = InstitutionIntegrationTest, testInstance = com.roo.esperanza.domain.InstitutionIntegrationTest@9f1ca74, testMethod = [null], testException = [null], mergedContextConfiguration = [MergedContextConfiguration@7540160e testClass = InstitutionIntegrationTest, locations = &apos;{classpath*:/META-INF/spring/applicationContext*.xml}&apos;, classes = &apos;{}&apos;, contextInitializerClasses = &apos;[]&apos;, activeProfiles = &apos;{}&apos;, contextLoader = &apos;org.springframework.test.context.support.DelegatingSmartContextLoader&apos;, parent = [null]]]].
2016-05-04 19:13:13,205 [main] DEBUG org.springframework.test.context.CacheAwareContextLoaderDelegate - Retrieved ApplicationContext from cache with key [[MergedContextConfiguration@7540160e testClass = InstitutionIntegrationTest, locations = &apos;{classpath*:/META-INF/spring/applicationContext*.xml}&apos;, classes = &apos;{}&apos;, contextInitializerClasses = &apos;[]&apos;, activeProfiles = &apos;{}&apos;, contextLoader = &apos;org.springframework.test.context.support.DelegatingSmartContextLoader&apos;, parent = [null]]].
2016-05-04 19:13:13,205 [main] DEBUG org.springframework.beans.factory.annotation.InjectionMetadata - Processing injected method of bean &apos;com.roo.esperanza.domain.InstitutionIntegrationTest&apos;: AutowiredFieldElement for com.roo.esperanza.domain.InstitutionDataOnDemand com.roo.esperanza.domain.InstitutionIntegrationTest.dod
2016-05-04 19:13:13,205 [main] DEBUG org.springframework.beans.factory.support.DefaultListableBeanFactory - Returning cached instance of singleton bean &apos;institutionDataOnDemand&apos;
2016-05-04 19:13:13,205 [main] DEBUG org.springframework.transaction.annotation.AnnotationTransactionAttributeSource - Adding transactional method &apos;InstitutionIntegrationTest.testRemove&apos; with attribute: PROPAGATION_REQUIRED,ISOLATION_DEFAULT; &apos;&apos;
2016-05-04 19:13:13,205 [main] DEBUG org.springframework.test.context.transaction.TransactionalTestExecutionListener - Explicit transaction definition [PROPAGATION_REQUIRED,ISOLATION_DEFAULT; &apos;&apos;] found for test context [TestContext@2d9de284 testClass = InstitutionIntegrationTest, testInstance = com.roo.esperanza.domain.InstitutionIntegrationTest@9f1ca74, testMethod = testRemove@InstitutionIntegrationTest, testException = [null], mergedContextConfiguration = [MergedContextConfiguration@7540160e testClass = InstitutionIntegrationTest, locations = &apos;{classpath*:/META-INF/spring/applicationContext*.xml}&apos;, classes = &apos;{}&apos;, contextInitializerClasses = &apos;[]&apos;, activeProfiles = &apos;{}&apos;, contextLoader = &apos;org.springframework.test.context.support.DelegatingSmartContextLoader&apos;, parent = [null]]]
2016-05-04 19:13:13,205 [main] DEBUG org.springframework.test.context.CacheAwareContextLoaderDelegate - Retrieved ApplicationContext from cache with key [[MergedContextConfiguration@7540160e testClass = InstitutionIntegrationTest, locations = &apos;{classpath*:/META-INF/spring/applicationContext*.xml}&apos;, classes = &apos;{}&apos;, contextInitializerClasses = &apos;[]&apos;, activeProfiles = &apos;{}&apos;, contextLoader = &apos;org.springframework.test.context.support.DelegatingSmartContextLoader&apos;, parent = [null]]].
2016-05-04 19:13:13,205 [main] DEBUG org.springframework.beans.factory.support.DefaultListableBeanFactory - Returning cached instance of singleton bean &apos;transactionManager&apos;
2016-05-04 19:13:13,206 [main] DEBUG org.springframework.orm.jpa.JpaTransactionManager - Creating new transaction with name [testRemove]: PROPAGATION_REQUIRED,ISOLATION_DEFAULT; &apos;&apos;
2016-05-04 19:13:13,206 [main] DEBUG org.springframework.orm.jpa.JpaTransactionManager - Opened new EntityManager [org.hibernate.jpa.internal.EntityManagerImpl@67b8d45] for JPA transaction
2016-05-04 19:13:13,206 [main] DEBUG org.hibernate.engine.transaction.spi.AbstractTransactionImpl - begin
2016-05-04 19:13:13,206 [main] DEBUG org.hibernate.engine.jdbc.internal.LogicalConnectionImpl - Obtaining JDBC connection
2016-05-04 19:13:13,206 [main] DEBUG org.hibernate.engine.jdbc.internal.LogicalConnectionImpl - Obtained JDBC connection
2016-05-04 19:13:13,206 [main] DEBUG org.hibernate.engine.transaction.internal.jdbc.JdbcTransaction - initial autocommit status: true
2016-05-04 19:13:13,206 [main] DEBUG org.hibernate.engine.transaction.internal.jdbc.JdbcTransaction - disabling autocommit
2016-05-04 19:13:13,206 [main] DEBUG org.springframework.orm.jpa.JpaTransactionManager - Not exposing JPA transaction [org.hibernate.jpa.internal.EntityManagerImpl@67b8d45] as JDBC transaction because JpaDialect [org.springframework.orm.jpa.DefaultJpaDialect@373052b5] does not support JDBC Connection retrieval
2016-05-04 19:13:13,206 [main] DEBUG org.springframework.test.context.transaction.TransactionalTestExecutionListener - No method-level @Rollback override: using default rollback [true] for test context [TestContext@2d9de284 testClass = InstitutionIntegrationTest, testInstance = com.roo.esperanza.domain.InstitutionIntegrationTest@9f1ca74, testMethod = testRemove@InstitutionIntegrationTest, testException = [null], mergedContextConfiguration = [MergedContextConfiguration@7540160e testClass = InstitutionIntegrationTest, locations = &apos;{classpath*:/META-INF/spring/applicationContext*.xml}&apos;, classes = &apos;{}&apos;, contextInitializerClasses = &apos;[]&apos;, activeProfiles = &apos;{}&apos;, contextLoader = &apos;org.springframework.test.context.support.DelegatingSmartContextLoader&apos;, parent = [null]]]
2016-05-04 19:13:13,206 [main] INFO  org.springframework.test.context.transaction.TransactionalTestExecutionListener - Began transaction (8): transaction manager [org.springframework.orm.jpa.JpaTransactionManager@7b2bf745]; rollback [true]
2016-05-04 19:13:13,207 [main] DEBUG org.springframework.beans.factory.annotation.InjectionMetadata - Processing injected method of bean &apos;com.roo.esperanza.domain.Participant$Participant_Roo_Jpa_ActiveRecord$1&apos;: PersistenceElement for transient javax.persistence.EntityManager com.roo.esperanza.domain.Participant.entityManager
2016-05-04 19:13:13,207 [main] DEBUG org.springframework.beans.factory.support.DefaultListableBeanFactory - Returning cached instance of singleton bean &apos;entityManagerFactory&apos;
2016-05-04 19:13:13,207 [main] DEBUG org.hibernate.SQL - select institutio0_.id as id2_13_, institutio0_.address as address17_13_, institutio0_.cell_phone as cell_pho3_13_, institutio0_.date as date4_13_, institutio0_.phone as phone5_13_, institutio0_.profile_picture as profile_6_13_, institutio0_.user as user18_13_, institutio0_.version as version7_13_, institutio0_.category as categor19_13_, institutio0_.cbu as cbu13_13_, institutio0_.long_description as long_de14_13_, institutio0_.short_description as short_d15_13_, institutio0_.social_reason as social_16_13_ from participant institutio0_ where institutio0_.dtype=&apos;Institution&apos; limit ?
2016-05-04 19:13:13,207 [main] DEBUG org.hibernate.loader.Loader - Result set row: 0
2016-05-04 19:13:13,207 [main] DEBUG org.hibernate.loader.Loader - Result row: EntityKey[com.roo.esperanza.domain.Institution#2]
2016-05-04 19:13:13,208 [main] DEBUG org.springframework.beans.factory.annotation.InjectionMetadata - Processing injected method of bean &apos;com.roo.esperanza.domain.Institution&apos;: PersistenceElement for transient javax.persistence.EntityManager com.roo.esperanza.domain.Participant.entityManager
2016-05-04 19:13:13,208 [main] DEBUG org.springframework.beans.factory.support.DefaultListableBeanFactory - Returning cached instance of singleton bean &apos;entityManagerFactory&apos;
2016-05-04 19:13:13,208 [main] DEBUG org.hibernate.loader.Loader - Result set row: 1
2016-05-04 19:13:13,208 [main] DEBUG org.hibernate.loader.Loader - Result row: EntityKey[com.roo.esperanza.domain.Institution#3]
2016-05-04 19:13:13,208 [main] DEBUG org.springframework.beans.factory.annotation.InjectionMetadata - Processing injected method of bean &apos;com.roo.esperanza.domain.Institution&apos;: PersistenceElement for transient javax.persistence.EntityManager com.roo.esperanza.domain.Participant.entityManager
2016-05-04 19:13:13,208 [main] DEBUG org.springframework.beans.factory.support.DefaultListableBeanFactory - Returning cached instance of singleton bean &apos;entityManagerFactory&apos;
2016-05-04 19:13:13,208 [main] DEBUG org.hibernate.loader.Loader - Result set row: 2
2016-05-04 19:13:13,208 [main] DEBUG org.hibernate.loader.Loader - Result row: EntityKey[com.roo.esperanza.domain.Institution#4]
2016-05-04 19:13:13,208 [main] DEBUG org.springframework.beans.factory.annotation.InjectionMetadata - Processing injected method of bean &apos;com.roo.esperanza.domain.Institution&apos;: PersistenceElement for transient javax.persistence.EntityManager com.roo.esperanza.domain.Participant.entityManager
2016-05-04 19:13:13,208 [main] DEBUG org.springframework.beans.factory.support.DefaultListableBeanFactory - Returning cached instance of singleton bean &apos;entityManagerFactory&apos;
2016-05-04 19:13:13,208 [main] DEBUG org.hibernate.engine.internal.TwoPhaseLoad - Resolving associations for [com.roo.esperanza.domain.Institution#2]
2016-05-04 19:13:13,208 [main] DEBUG org.hibernate.SQL - select address0_.id as id1_0_0_, address0_.address as address2_0_0_, address0_.city as city3_0_0_, address0_.country as country6_0_0_, address0_.postal_code as postal_c4_0_0_, address0_.province as province7_0_0_, address0_.version as version5_0_0_, country1_.id as id1_6_1_, country1_.code as code2_6_1_, country1_.name as name3_6_1_, country1_.version as version4_6_1_, province2_.id as id1_18_2_, province2_.country as country4_18_2_, province2_.name as name2_18_2_, province2_.version as version3_18_2_, country3_.id as id1_6_3_, country3_.code as code2_6_3_, country3_.name as name3_6_3_, country3_.version as version4_6_3_ from address address0_ left outer join country country1_ on address0_.country=country1_.id left outer join province province2_ on address0_.province=province2_.id left outer join country country3_ on province2_.country=country3_.id where address0_.id=?
2016-05-04 19:13:13,209 [main] DEBUG org.hibernate.loader.plan.exec.process.internal.ResultSetProcessorImpl - Starting ResultSet row #0
2016-05-04 19:13:13,209 [main] DEBUG org.hibernate.loader.plan.exec.process.internal.EntityReferenceInitializerImpl - On call to EntityIdentifierReaderImpl#resolve, EntityKey was already known; should only happen on root returns with an optional identifier specified
2016-05-04 19:13:13,209 [main] DEBUG org.springframework.beans.factory.annotation.InjectionMetadata - Processing injected method of bean &apos;com.roo.esperanza.domain.Address&apos;: PersistenceElement for transient javax.persistence.EntityManager com.roo.esperanza.domain.Address.entityManager
2016-05-04 19:13:13,209 [main] DEBUG org.springframework.beans.factory.support.DefaultListableBeanFactory - Returning cached instance of singleton bean &apos;entityManagerFactory&apos;
2016-05-04 19:13:13,209 [main] DEBUG org.springframework.beans.factory.annotation.InjectionMetadata - Processing injected method of bean &apos;com.roo.esperanza.domain.Country&apos;: PersistenceElement for transient javax.persistence.EntityManager com.roo.esperanza.domain.Country.entityManager
2016-05-04 19:13:13,209 [main] DEBUG org.springframework.beans.factory.support.DefaultListableBeanFactory - Returning cached instance of singleton bean &apos;entityManagerFactory&apos;
2016-05-04 19:13:13,209 [main] DEBUG org.springframework.beans.factory.annotation.InjectionMetadata - Processing injected method of bean &apos;com.roo.esperanza.domain.Province&apos;: PersistenceElement for transient javax.persistence.EntityManager com.roo.esperanza.domain.Province.entityManager
2016-05-04 19:13:13,209 [main] DEBUG org.springframework.beans.factory.support.DefaultListableBeanFactory - Returning cached instance of singleton bean &apos;entityManagerFactory&apos;
2016-05-04 19:13:13,209 [main] DEBUG org.hibernate.engine.internal.TwoPhaseLoad - Resolving associations for [com.roo.esperanza.domain.Address#2]
2016-05-04 19:13:13,209 [main] DEBUG org.hibernate.engine.internal.TwoPhaseLoad - Done materializing entity [com.roo.esperanza.domain.Address#2]
2016-05-04 19:13:13,209 [main] DEBUG org.hibernate.engine.internal.TwoPhaseLoad - Resolving associations for [com.roo.esperanza.domain.Country#10]
2016-05-04 19:13:13,209 [main] DEBUG org.hibernate.engine.internal.TwoPhaseLoad - Done materializing entity [com.roo.esperanza.domain.Country#10]
2016-05-04 19:13:13,209 [main] DEBUG org.hibernate.engine.internal.TwoPhaseLoad - Resolving associations for [com.roo.esperanza.domain.Province#11]
2016-05-04 19:13:13,209 [main] DEBUG org.hibernate.engine.internal.TwoPhaseLoad - Done materializing entity [com.roo.esperanza.domain.Province#11]
2016-05-04 19:13:13,210 [main] DEBUG org.hibernate.loader.entity.plan.AbstractLoadPlanBasedEntityLoader - Done entity load : com.roo.esperanza.domain.Address#2
2016-05-04 19:13:13,210 [main] DEBUG org.hibernate.SQL - select user0_.id as id1_26_0_, user0_.activation_date as activati2_26_0_, user0_.activation_key as activati3_26_0_, user0_.config_notification as config_n9_26_0_, user0_.email_address as email_ad4_26_0_, user0_.enabled as enabled5_26_0_, user0_.locked as locked6_26_0_, user0_.password as password7_26_0_, user0_.rol as rol10_26_0_, user0_.version as version8_26_0_, confignoti1_.id as id1_4_1_, confignoti1_.claim_donation as claim_do2_4_1_, confignoti1_.complaint_received as complain3_4_1_, confignoti1_.denouncements as denounce4_4_1_, confignoti1_.donation_goods as donation5_4_1_, confignoti1_.donation_received as donation6_4_1_, confignoti1_.donation_request as donation7_4_1_, confignoti1_.needs as needs8_4_1_, confignoti1_.publicaction_status as publicac9_4_1_, confignoti1_.publications as publica10_4_1_, confignoti1_.receive_mails as receive11_4_1_, confignoti1_.state_complaint_filed as state_c12_4_1_, confignoti1_.statistics as statist13_4_1_, confignoti1_.suscriptions as suscrip14_4_1_, confignoti1_.thanks_to_donation as thanks_15_4_1_, confignoti1_.version as version16_4_1_, role2_.id as id1_24_2_, role2_.role_description as role_des2_24_2_, role2_.role_type as role_typ3_24_2_, role2_.version as version4_24_2_ from user user0_ left outer join config_notification confignoti1_ on user0_.config_notification=confignoti1_.id left outer join role role2_ on user0_.rol=role2_.id where user0_.id=?
2016-05-04 19:13:13,210 [main] DEBUG org.hibernate.loader.plan.exec.process.internal.ResultSetProcessorImpl - Starting ResultSet row #0
2016-05-04 19:13:13,211 [main] DEBUG org.hibernate.loader.plan.exec.process.internal.EntityReferenceInitializerImpl - On call to EntityIdentifierReaderImpl#resolve, EntityKey was already known; should only happen on root returns with an optional identifier specified
2016-05-04 19:13:13,211 [main] DEBUG org.springframework.beans.factory.annotation.InjectionMetadata - Processing injected method of bean &apos;com.roo.esperanza.domain.User&apos;: PersistenceElement for transient javax.persistence.EntityManager com.roo.esperanza.domain.User.entityManager
2016-05-04 19:13:13,211 [main] DEBUG org.springframework.beans.factory.support.DefaultListableBeanFactory - Returning cached instance of singleton bean &apos;entityManagerFactory&apos;
2016-05-04 19:13:13,211 [main] DEBUG org.springframework.beans.factory.annotation.InjectionMetadata - Processing injected method of bean &apos;com.roo.esperanza.domain.ConfigNotification&apos;: PersistenceElement for transient javax.persistence.EntityManager com.roo.esperanza.domain.ConfigNotification.entityManager
2016-05-04 19:13:13,211 [main] DEBUG org.springframework.beans.factory.support.DefaultListableBeanFactory - Returning cached instance of singleton bean &apos;entityManagerFactory&apos;
2016-05-04 19:13:13,211 [main] DEBUG org.springframework.beans.factory.annotation.InjectionMetadata - Processing injected method of bean &apos;com.roo.esperanza.domain.Role&apos;: PersistenceElement for transient javax.persistence.EntityManager com.roo.esperanza.domain.Role.entityManager
2016-05-04 19:13:13,211 [main] DEBUG org.springframework.beans.factory.support.DefaultListableBeanFactory - Returning cached instance of singleton bean &apos;entityManagerFactory&apos;
2016-05-04 19:13:13,211 [main] DEBUG org.hibernate.engine.internal.TwoPhaseLoad - Resolving associations for [com.roo.esperanza.domain.User#2]
2016-05-04 19:13:13,211 [main] DEBUG org.hibernate.engine.internal.TwoPhaseLoad - Done materializing entity [com.roo.esperanza.domain.User#2]
2016-05-04 19:13:13,211 [main] DEBUG org.hibernate.engine.internal.TwoPhaseLoad - Resolving associations for [com.roo.esperanza.domain.ConfigNotification#1]
2016-05-04 19:13:13,211 [main] DEBUG org.hibernate.engine.internal.TwoPhaseLoad - Done materializing entity [com.roo.esperanza.domain.ConfigNotification#1]
2016-05-04 19:13:13,211 [main] DEBUG org.hibernate.engine.internal.TwoPhaseLoad - Resolving associations for [com.roo.esperanza.domain.Role#3]
2016-05-04 19:13:13,211 [main] DEBUG org.hibernate.engine.internal.TwoPhaseLoad - Done materializing entity [com.roo.esperanza.domain.Role#3]
2016-05-04 19:13:13,211 [main] DEBUG org.hibernate.loader.entity.plan.AbstractLoadPlanBasedEntityLoader - Done entity load : com.roo.esperanza.domain.User#2
2016-05-04 19:13:13,212 [main] DEBUG org.hibernate.SQL - select category0_.id as id1_3_0_, category0_.name as name2_3_0_, category0_.parent as parent4_3_0_, category0_.version as version3_3_0_, category1_.id as id1_3_1_, category1_.name as name2_3_1_, category1_.parent as parent4_3_1_, category1_.version as version3_3_1_ from category category0_ left outer join category category1_ on category0_.parent=category1_.id where category0_.id=?
2016-05-04 19:13:13,212 [main] DEBUG org.hibernate.loader.plan.exec.process.internal.ResultSetProcessorImpl - Starting ResultSet row #0
2016-05-04 19:13:13,212 [main] DEBUG org.hibernate.loader.plan.exec.process.internal.EntityReferenceInitializerImpl - On call to EntityIdentifierReaderImpl#resolve, EntityKey was already known; should only happen on root returns with an optional identifier specified
2016-05-04 19:13:13,212 [main] DEBUG org.springframework.beans.factory.annotation.InjectionMetadata - Processing injected method of bean &apos;com.roo.esperanza.domain.Category&apos;: PersistenceElement for transient javax.persistence.EntityManager com.roo.esperanza.domain.Category.entityManager
2016-05-04 19:13:13,212 [main] DEBUG org.springframework.beans.factory.support.DefaultListableBeanFactory - Returning cached instance of singleton bean &apos;entityManagerFactory&apos;
2016-05-04 19:13:13,212 [main] DEBUG org.hibernate.engine.internal.TwoPhaseLoad - Resolving associations for [com.roo.esperanza.domain.Category#8]
2016-05-04 19:13:13,212 [main] DEBUG org.hibernate.engine.internal.TwoPhaseLoad - Done materializing entity [com.roo.esperanza.domain.Category#8]
2016-05-04 19:13:13,213 [main] DEBUG org.hibernate.loader.entity.plan.AbstractLoadPlanBasedEntityLoader - Done entity load : com.roo.esperanza.domain.Category#8
2016-05-04 19:13:13,213 [main] DEBUG org.hibernate.engine.internal.TwoPhaseLoad - Done materializing entity [com.roo.esperanza.domain.Institution#2]
2016-05-04 19:13:13,213 [main] DEBUG org.hibernate.engine.internal.TwoPhaseLoad - Resolving associations for [com.roo.esperanza.domain.Institution#3]
2016-05-04 19:13:13,213 [main] DEBUG org.hibernate.SQL - select address0_.id as id1_0_0_, address0_.address as address2_0_0_, address0_.city as city3_0_0_, address0_.country as country6_0_0_, address0_.postal_code as postal_c4_0_0_, address0_.province as province7_0_0_, address0_.version as version5_0_0_, country1_.id as id1_6_1_, country1_.code as code2_6_1_, country1_.name as name3_6_1_, country1_.version as version4_6_1_, province2_.id as id1_18_2_, province2_.country as country4_18_2_, province2_.name as name2_18_2_, province2_.version as version3_18_2_, country3_.id as id1_6_3_, country3_.code as code2_6_3_, country3_.name as name3_6_3_, country3_.version as version4_6_3_ from address address0_ left outer join country country1_ on address0_.country=country1_.id left outer join province province2_ on address0_.province=province2_.id left outer join country country3_ on province2_.country=country3_.id where address0_.id=?
2016-05-04 19:13:13,213 [main] DEBUG org.hibernate.loader.plan.exec.process.internal.ResultSetProcessorImpl - Starting ResultSet row #0
2016-05-04 19:13:13,213 [main] DEBUG org.hibernate.loader.plan.exec.process.internal.EntityReferenceInitializerImpl - On call to EntityIdentifierReaderImpl#resolve, EntityKey was already known; should only happen on root returns with an optional identifier specified
2016-05-04 19:13:13,213 [main] DEBUG org.springframework.beans.factory.annotation.InjectionMetadata - Processing injected method of bean &apos;com.roo.esperanza.domain.Address&apos;: PersistenceElement for transient javax.persistence.EntityManager com.roo.esperanza.domain.Address.entityManager
2016-05-04 19:13:13,213 [main] DEBUG org.springframework.beans.factory.support.DefaultListableBeanFactory - Returning cached instance of singleton bean &apos;entityManagerFactory&apos;
2016-05-04 19:13:13,213 [main] DEBUG org.hibernate.engine.internal.TwoPhaseLoad - Resolving associations for [com.roo.esperanza.domain.Address#3]
2016-05-04 19:13:13,214 [main] DEBUG org.hibernate.engine.internal.TwoPhaseLoad - Done materializing entity [com.roo.esperanza.domain.Address#3]
2016-05-04 19:13:13,214 [main] DEBUG org.hibernate.loader.entity.plan.AbstractLoadPlanBasedEntityLoader - Done entity load : com.roo.esperanza.domain.Address#3
2016-05-04 19:13:13,214 [main] DEBUG org.hibernate.SQL - select user0_.id as id1_26_0_, user0_.activation_date as activati2_26_0_, user0_.activation_key as activati3_26_0_, user0_.config_notification as config_n9_26_0_, user0_.email_address as email_ad4_26_0_, user0_.enabled as enabled5_26_0_, user0_.locked as locked6_26_0_, user0_.password as password7_26_0_, user0_.rol as rol10_26_0_, user0_.version as version8_26_0_, confignoti1_.id as id1_4_1_, confignoti1_.claim_donation as claim_do2_4_1_, confignoti1_.complaint_received as complain3_4_1_, confignoti1_.denouncements as denounce4_4_1_, confignoti1_.donation_goods as donation5_4_1_, confignoti1_.donation_received as donation6_4_1_, confignoti1_.donation_request as donation7_4_1_, confignoti1_.needs as needs8_4_1_, confignoti1_.publicaction_status as publicac9_4_1_, confignoti1_.publications as publica10_4_1_, confignoti1_.receive_mails as receive11_4_1_, confignoti1_.state_complaint_filed as state_c12_4_1_, confignoti1_.statistics as statist13_4_1_, confignoti1_.suscriptions as suscrip14_4_1_, confignoti1_.thanks_to_donation as thanks_15_4_1_, confignoti1_.version as version16_4_1_, role2_.id as id1_24_2_, role2_.role_description as role_des2_24_2_, role2_.role_type as role_typ3_24_2_, role2_.version as version4_24_2_ from user user0_ left outer join config_notification confignoti1_ on user0_.config_notification=confignoti1_.id left outer join role role2_ on user0_.rol=role2_.id where user0_.id=?
2016-05-04 19:13:13,214 [main] DEBUG org.hibernate.loader.plan.exec.process.internal.ResultSetProcessorImpl - Starting ResultSet row #0
2016-05-04 19:13:13,215 [main] DEBUG org.hibernate.loader.plan.exec.process.internal.EntityReferenceInitializerImpl - On call to EntityIdentifierReaderImpl#resolve, EntityKey was already known; should only happen on root returns with an optional identifier specified
2016-05-04 19:13:13,215 [main] DEBUG org.springframework.beans.factory.annotation.InjectionMetadata - Processing injected method of bean &apos;com.roo.esperanza.domain.User&apos;: PersistenceElement for transient javax.persistence.EntityManager com.roo.esperanza.domain.User.entityManager
2016-05-04 19:13:13,215 [main] DEBUG org.springframework.beans.factory.support.DefaultListableBeanFactory - Returning cached instance of singleton bean &apos;entityManagerFactory&apos;
2016-05-04 19:13:13,215 [main] DEBUG org.springframework.beans.factory.annotation.InjectionMetadata - Processing injected method of bean &apos;com.roo.esperanza.domain.ConfigNotification&apos;: PersistenceElement for transient javax.persistence.EntityManager com.roo.esperanza.domain.ConfigNotification.entityManager
2016-05-04 19:13:13,215 [main] DEBUG org.springframework.beans.factory.support.DefaultListableBeanFactory - Returning cached instance of singleton bean &apos;entityManagerFactory&apos;
2016-05-04 19:13:13,215 [main] DEBUG org.hibernate.engine.internal.TwoPhaseLoad - Resolving associations for [com.roo.esperanza.domain.User#3]
2016-05-04 19:13:13,215 [main] DEBUG org.hibernate.engine.internal.TwoPhaseLoad - Done materializing entity [com.roo.esperanza.domain.User#3]
2016-05-04 19:13:13,215 [main] DEBUG org.hibernate.engine.internal.TwoPhaseLoad - Resolving associations for [com.roo.esperanza.domain.ConfigNotification#3]
2016-05-04 19:13:13,215 [main] DEBUG org.hibernate.engine.internal.TwoPhaseLoad - Done materializing entity [com.roo.esperanza.domain.ConfigNotification#3]
2016-05-04 19:13:13,215 [main] DEBUG org.hibernate.loader.entity.plan.AbstractLoadPlanBasedEntityLoader - Done entity load : com.roo.esperanza.domain.User#3
2016-05-04 19:13:13,215 [main] DEBUG org.hibernate.engine.internal.TwoPhaseLoad - Done materializing entity [com.roo.esperanza.domain.Institution#3]
2016-05-04 19:13:13,215 [main] DEBUG org.hibernate.engine.internal.TwoPhaseLoad - Resolving associations for [com.roo.esperanza.domain.Institution#4]
2016-05-04 19:13:13,215 [main] DEBUG org.hibernate.SQL - select address0_.id as id1_0_0_, address0_.address as address2_0_0_, address0_.city as city3_0_0_, address0_.country as country6_0_0_, address0_.postal_code as postal_c4_0_0_, address0_.province as province7_0_0_, address0_.version as version5_0_0_, country1_.id as id1_6_1_, country1_.code as code2_6_1_, country1_.name as name3_6_1_, country1_.version as version4_6_1_, province2_.id as id1_18_2_, province2_.country as country4_18_2_, province2_.name as name2_18_2_, province2_.version as version3_18_2_, country3_.id as id1_6_3_, country3_.code as code2_6_3_, country3_.name as name3_6_3_, country3_.version as version4_6_3_ from address address0_ left outer join country country1_ on address0_.country=country1_.id left outer join province province2_ on address0_.province=province2_.id left outer join country country3_ on province2_.country=country3_.id where address0_.id=?
2016-05-04 19:13:13,216 [main] DEBUG org.hibernate.loader.plan.exec.process.internal.ResultSetProcessorImpl - Starting ResultSet row #0
2016-05-04 19:13:13,216 [main] DEBUG org.hibernate.loader.plan.exec.process.internal.EntityReferenceInitializerImpl - On call to EntityIdentifierReaderImpl#resolve, EntityKey was already known; should only happen on root returns with an optional identifier specified
2016-05-04 19:13:13,216 [main] DEBUG org.springframework.beans.factory.annotation.InjectionMetadata - Processing injected method of bean &apos;com.roo.esperanza.domain.Address&apos;: PersistenceElement for transient javax.persistence.EntityManager com.roo.esperanza.domain.Address.entityManager
2016-05-04 19:13:13,216 [main] DEBUG org.springframework.beans.factory.support.DefaultListableBeanFactory - Returning cached instance of singleton bean &apos;entityManagerFactory&apos;
2016-05-04 19:13:13,216 [main] DEBUG org.hibernate.engine.internal.TwoPhaseLoad - Resolving associations for [com.roo.esperanza.domain.Address#4]
2016-05-04 19:13:13,216 [main] DEBUG org.hibernate.engine.internal.TwoPhaseLoad - Done materializing entity [com.roo.esperanza.domain.Address#4]
2016-05-04 19:13:13,217 [main] DEBUG org.hibernate.loader.entity.plan.AbstractLoadPlanBasedEntityLoader - Done entity load : com.roo.esperanza.domain.Address#4
2016-05-04 19:13:13,217 [main] DEBUG org.hibernate.SQL - select user0_.id as id1_26_0_, user0_.activation_date as activati2_26_0_, user0_.activation_key as activati3_26_0_, user0_.config_notification as config_n9_26_0_, user0_.email_address as email_ad4_26_0_, user0_.enabled as enabled5_26_0_, user0_.locked as locked6_26_0_, user0_.password as password7_26_0_, user0_.rol as rol10_26_0_, user0_.version as version8_26_0_, confignoti1_.id as id1_4_1_, confignoti1_.claim_donation as claim_do2_4_1_, confignoti1_.complaint_received as complain3_4_1_, confignoti1_.denouncements as denounce4_4_1_, confignoti1_.donation_goods as donation5_4_1_, confignoti1_.donation_received as donation6_4_1_, confignoti1_.donation_request as donation7_4_1_, confignoti1_.needs as needs8_4_1_, confignoti1_.publicaction_status as publicac9_4_1_, confignoti1_.publications as publica10_4_1_, confignoti1_.receive_mails as receive11_4_1_, confignoti1_.state_complaint_filed as state_c12_4_1_, confignoti1_.statistics as statist13_4_1_, confignoti1_.suscriptions as suscrip14_4_1_, confignoti1_.thanks_to_donation as thanks_15_4_1_, confignoti1_.version as version16_4_1_, role2_.id as id1_24_2_, role2_.role_description as role_des2_24_2_, role2_.role_type as role_typ3_24_2_, role2_.version as version4_24_2_ from user user0_ left outer join config_notification confignoti1_ on user0_.config_notification=confignoti1_.id left outer join role role2_ on user0_.rol=role2_.id where user0_.id=?
2016-05-04 19:13:13,217 [main] DEBUG org.hibernate.loader.plan.exec.process.internal.ResultSetProcessorImpl - Starting ResultSet row #0
2016-05-04 19:13:13,217 [main] DEBUG org.hibernate.loader.plan.exec.process.internal.EntityReferenceInitializerImpl - On call to EntityIdentifierReaderImpl#resolve, EntityKey was already known; should only happen on root returns with an optional identifier specified
2016-05-04 19:13:13,217 [main] DEBUG org.springframework.beans.factory.annotation.InjectionMetadata - Processing injected method of bean &apos;com.roo.esperanza.domain.User&apos;: PersistenceElement for transient javax.persistence.EntityManager com.roo.esperanza.domain.User.entityManager
2016-05-04 19:13:13,217 [main] DEBUG org.springframework.beans.factory.support.DefaultListableBeanFactory - Returning cached instance of singleton bean &apos;entityManagerFactory&apos;
2016-05-04 19:13:13,218 [main] DEBUG org.springframework.beans.factory.annotation.InjectionMetadata - Processing injected method of bean &apos;com.roo.esperanza.domain.ConfigNotification&apos;: PersistenceElement for transient javax.persistence.EntityManager com.roo.esperanza.domain.ConfigNotification.entityManager
2016-05-04 19:13:13,218 [main] DEBUG org.springframework.beans.factory.support.DefaultListableBeanFactory - Returning cached instance of singleton bean &apos;entityManagerFactory&apos;
2016-05-04 19:13:13,218 [main] DEBUG org.hibernate.engine.internal.TwoPhaseLoad - Resolving associations for [com.roo.esperanza.domain.User#4]
2016-05-04 19:13:13,218 [main] DEBUG org.hibernate.engine.internal.TwoPhaseLoad - Done materializing entity [com.roo.esperanza.domain.User#4]
2016-05-04 19:13:13,218 [main] DEBUG org.hibernate.engine.internal.TwoPhaseLoad - Resolving associations for [com.roo.esperanza.domain.ConfigNotification#4]
2016-05-04 19:13:13,218 [main] DEBUG org.hibernate.engine.internal.TwoPhaseLoad - Done materializing entity [com.roo.esperanza.domain.ConfigNotification#4]
2016-05-04 19:13:13,218 [main] DEBUG org.hibernate.loader.entity.plan.AbstractLoadPlanBasedEntityLoader - Done entity load : com.roo.esperanza.domain.User#4
2016-05-04 19:13:13,219 [main] DEBUG org.hibernate.engine.internal.TwoPhaseLoad - Done materializing entity [com.roo.esperanza.domain.Institution#4]
2016-05-04 19:13:13,219 [main] DEBUG org.springframework.beans.factory.annotation.InjectionMetadata - Processing injected method of bean &apos;com.roo.esperanza.domain.Participant$Participant_Roo_Jpa_ActiveRecord$1&apos;: PersistenceElement for transient javax.persistence.EntityManager com.roo.esperanza.domain.Participant.entityManager
2016-05-04 19:13:13,219 [main] DEBUG org.springframework.beans.factory.support.DefaultListableBeanFactory - Returning cached instance of singleton bean &apos;entityManagerFactory&apos;
2016-05-04 19:13:13,219 [main] DEBUG org.springframework.beans.factory.annotation.InjectionMetadata - Processing injected method of bean &apos;com.roo.esperanza.domain.Participant$Participant_Roo_Jpa_ActiveRecord$1&apos;: PersistenceElement for transient javax.persistence.EntityManager com.roo.esperanza.domain.Participant.entityManager
2016-05-04 19:13:13,219 [main] DEBUG org.springframework.beans.factory.support.DefaultListableBeanFactory - Returning cached instance of singleton bean &apos;entityManagerFactory&apos;
2016-05-04 19:13:13,219 [main] DEBUG org.springframework.transaction.annotation.AnnotationTransactionAttributeSource - Adding transactional method &apos;Institution.remove&apos; with attribute: PROPAGATION_REQUIRED,ISOLATION_DEFAULT; &apos;&apos;
2016-05-04 19:13:13,219 [main] DEBUG org.springframework.beans.factory.support.DefaultListableBeanFactory - Returning cached instance of singleton bean &apos;transactionManager&apos;
2016-05-04 19:13:13,219 [main] DEBUG org.springframework.orm.jpa.JpaTransactionManager - Found thread-bound EntityManager [org.hibernate.jpa.internal.EntityManagerImpl@67b8d45] for JPA transaction
2016-05-04 19:13:13,220 [main] DEBUG org.springframework.orm.jpa.JpaTransactionManager - Participating in existing transaction
2016-05-04 19:13:13,220 [main] DEBUG org.hibernate.loader.collection.plan.AbstractLoadPlanBasedCollectionInitializer - Loading collection: [com.roo.esperanza.domain.Participant.arrayScore#2]
2016-05-04 19:13:13,220 [main] DEBUG org.hibernate.SQL - select arrayscore0_.participant as particip1_13_0_, arrayscore0_.array_score as array_sc2_15_0_, puntuation1_.id as id1_21_1_, puntuation1_.comment as comment2_21_1_, puntuation1_.date as date3_21_1_, puntuation1_.score_type as score_ty4_21_1_, puntuation1_.version as version5_21_1_ from participant_array_score arrayscore0_ inner join puntuation puntuation1_ on arrayscore0_.array_score=puntuation1_.id where arrayscore0_.participant=?
2016-05-04 19:13:13,220 [main] DEBUG org.hibernate.loader.plan.exec.process.internal.ResultSetProcessorImpl - Preparing collection intializer : [com.roo.esperanza.domain.Participant.arrayScore#2]
2016-05-04 19:13:13,221 [main] DEBUG org.hibernate.engine.loading.internal.CollectionLoadContext - 1 collections were found in result set for role: com.roo.esperanza.domain.Participant.arrayScore
2016-05-04 19:13:13,221 [main] DEBUG org.hibernate.engine.loading.internal.CollectionLoadContext - Collection fully initialized: [com.roo.esperanza.domain.Participant.arrayScore#2]
2016-05-04 19:13:13,221 [main] DEBUG org.hibernate.engine.loading.internal.CollectionLoadContext - 1 collections initialized for role: com.roo.esperanza.domain.Participant.arrayScore
2016-05-04 19:13:13,221 [main] DEBUG org.hibernate.loader.collection.plan.AbstractLoadPlanBasedCollectionInitializer - Done loading collection
2016-05-04 19:13:13,221 [main] DEBUG org.hibernate.loader.collection.plan.AbstractLoadPlanBasedCollectionInitializer - Loading collection: [com.roo.esperanza.domain.Participant.donations#2]
2016-05-04 19:13:13,221 [main] DEBUG org.hibernate.SQL - select donations0_.donor as donor7_13_0_, donations0_.id as id1_8_0_, donations0_.id as id1_8_1_, donations0_.date as date2_8_1_, donations0_.description as descript3_8_1_, donations0_.donation_status_type as donation4_8_1_, donations0_.donation_type as donation5_8_1_, donations0_.donor as donor7_8_1_, donations0_.publication as publicat8_8_1_, donations0_.receiver as receiver9_8_1_, donations0_.version as version6_8_1_, publicatio1_.id as id2_19_2_, publicatio1_.creator as creator12_19_2_, publicatio1_.date as date3_19_2_, publicatio1_.description as descript4_19_2_, publicatio1_.detailed_description as detailed5_19_2_, publicatio1_.donation_type as donation6_19_2_, publicatio1_.history as history13_19_2_, publicatio1_.link as link7_19_2_, publicatio1_.status_type as status_t8_19_2_, publicatio1_.version as version9_19_2_, publicatio1_.photo_path as photo_p10_19_2_, publicatio1_.priority_type as priorit11_19_2_, publicatio1_.dtype as dtype1_19_2_, participan2_.id as id2_13_3_, participan2_.address as address17_13_3_, participan2_.cell_phone as cell_pho3_13_3_, participan2_.date as date4_13_3_, participan2_.phone as phone5_13_3_, participan2_.profile_picture as profile_6_13_3_, participan2_.user as user18_13_3_, participan2_.version as version7_13_3_, participan2_.first_name as first_na8_13_3_, participan2_.genre_type as genre_ty9_13_3_, participan2_.identification as identif10_13_3_, participan2_.last_name as last_na11_13_3_, participan2_.personal_description as persona12_13_3_, participan2_.category as categor19_13_3_, participan2_.cbu as cbu13_13_3_, participan2_.long_description as long_de14_13_3_, participan2_.short_description as short_d15_13_3_, participan2_.social_reason as social_16_13_3_, participan2_.dtype as dtype1_13_3_, publicatio3_.id as id1_20_4_, publicatio3_.admin_name as admin_na2_20_4_, publicatio3_.array_status as array_st3_20_4_, publicatio3_.version as version4_20_4_, participan4_.id as id2_13_5_, participan4_.address as address17_13_5_, participan4_.cell_phone as cell_pho3_13_5_, participan4_.date as date4_13_5_, participan4_.phone as phone5_13_5_, participan4_.profile_picture as profile_6_13_5_, participan4_.user as user18_13_5_, participan4_.version as version7_13_5_, participan4_.first_name as first_na8_13_5_, participan4_.genre_type as genre_ty9_13_5_, participan4_.identification as identif10_13_5_, participan4_.last_name as last_na11_13_5_, participan4_.personal_description as persona12_13_5_, participan4_.category as categor19_13_5_, participan4_.cbu as cbu13_13_5_, participan4_.long_description as long_de14_13_5_, participan4_.short_description as short_d15_13_5_, participan4_.social_reason as social_16_13_5_, participan4_.dtype as dtype1_13_5_, address5_.id as id1_0_6_, address5_.address as address2_0_6_, address5_.city as city3_0_6_, address5_.country as country6_0_6_, address5_.postal_code as postal_c4_0_6_, address5_.province as province7_0_6_, address5_.version as version5_0_6_, user6_.id as id1_26_7_, user6_.activation_date as activati2_26_7_, user6_.activation_key as activati3_26_7_, user6_.config_notification as config_n9_26_7_, user6_.email_address as email_ad4_26_7_, user6_.enabled as enabled5_26_7_, user6_.locked as locked6_26_7_, user6_.password as password7_26_7_, user6_.rol as rol10_26_7_, user6_.version as version8_26_7_, category7_.id as id1_3_8_, category7_.name as name2_3_8_, category7_.parent as parent4_3_8_, category7_.version as version3_3_8_ from donation donations0_ left outer join publication publicatio1_ on donations0_.publication=publicatio1_.id left outer join participant participan2_ on publicatio1_.creator=participan2_.id left outer join publication_history publicatio3_ on publicatio1_.history=publicatio3_.id left outer join participant participan4_ on donations0_.receiver=participan4_.id left outer join address address5_ on participan4_.address=address5_.id left outer join user user6_ on participan4_.user=user6_.id left outer join category category7_ on participan4_.category=category7_.id where donations0_.donor=?
2016-05-04 19:13:13,222 [main] DEBUG org.hibernate.loader.plan.exec.process.internal.ResultSetProcessorImpl - Preparing collection intializer : [com.roo.esperanza.domain.Participant.donations#2]
2016-05-04 19:13:13,222 [main] DEBUG org.hibernate.engine.loading.internal.CollectionLoadContext - 1 collections were found in result set for role: com.roo.esperanza.domain.Participant.donations
2016-05-04 19:13:13,222 [main] DEBUG org.hibernate.engine.loading.internal.CollectionLoadContext - Collection fully initialized: [com.roo.esperanza.domain.Participant.donations#2]
2016-05-04 19:13:13,222 [main] DEBUG org.hibernate.engine.loading.internal.CollectionLoadContext - 1 collections initialized for role: com.roo.esperanza.domain.Participant.donations
2016-05-04 19:13:13,223 [main] DEBUG org.hibernate.loader.collection.plan.AbstractLoadPlanBasedCollectionInitializer - Done loading collection
2016-05-04 19:13:13,223 [main] DEBUG org.hibernate.loader.collection.plan.AbstractLoadPlanBasedCollectionInitializer - Loading collection: [com.roo.esperanza.domain.Participant.necessitys#2]
2016-05-04 19:13:13,223 [main] DEBUG org.hibernate.SQL - select necessitys0_.participant as particip1_13_0_, necessitys0_.necessitys as necessit2_17_0_, necessity1_.id as id2_19_1_, necessity1_.creator as creator12_19_1_, necessity1_.date as date3_19_1_, necessity1_.description as descript4_19_1_, necessity1_.detailed_description as detailed5_19_1_, necessity1_.donation_type as donation6_19_1_, necessity1_.history as history13_19_1_, necessity1_.link as link7_19_1_, necessity1_.status_type as status_t8_19_1_, necessity1_.version as version9_19_1_, necessity1_.priority_type as priorit11_19_1_, participan2_.id as id2_13_2_, participan2_.address as address17_13_2_, participan2_.cell_phone as cell_pho3_13_2_, participan2_.date as date4_13_2_, participan2_.phone as phone5_13_2_, participan2_.profile_picture as profile_6_13_2_, participan2_.user as user18_13_2_, participan2_.version as version7_13_2_, participan2_.first_name as first_na8_13_2_, participan2_.genre_type as genre_ty9_13_2_, participan2_.identification as identif10_13_2_, participan2_.last_name as last_na11_13_2_, participan2_.personal_description as persona12_13_2_, participan2_.category as categor19_13_2_, participan2_.cbu as cbu13_13_2_, participan2_.long_description as long_de14_13_2_, participan2_.short_description as short_d15_13_2_, participan2_.social_reason as social_16_13_2_, participan2_.dtype as dtype1_13_2_, address3_.id as id1_0_3_, address3_.address as address2_0_3_, address3_.city as city3_0_3_, address3_.country as country6_0_3_, address3_.postal_code as postal_c4_0_3_, address3_.province as province7_0_3_, address3_.version as version5_0_3_, user4_.id as id1_26_4_, user4_.activation_date as activati2_26_4_, user4_.activation_key as activati3_26_4_, user4_.config_notification as config_n9_26_4_, user4_.email_address as email_ad4_26_4_, user4_.enabled as enabled5_26_4_, user4_.locked as locked6_26_4_, user4_.password as password7_26_4_, user4_.rol as rol10_26_4_, user4_.version as version8_26_4_, category5_.id as id1_3_5_, category5_.name as name2_3_5_, category5_.parent as parent4_3_5_, category5_.version as version3_3_5_, publicatio6_.id as id1_20_6_, publicatio6_.admin_name as admin_na2_20_6_, publicatio6_.array_status as array_st3_20_6_, publicatio6_.version as version4_20_6_ from participant_necessitys necessitys0_ inner join publication necessity1_ on necessitys0_.necessitys=necessity1_.id left outer join participant participan2_ on necessity1_.creator=participan2_.id left outer join address address3_ on participan2_.address=address3_.id left outer join user user4_ on participan2_.user=user4_.id left outer join category category5_ on participan2_.category=category5_.id left outer join publication_history publicatio6_ on necessity1_.history=publicatio6_.id where necessitys0_.participant=?
2016-05-04 19:13:13,224 [main] DEBUG org.hibernate.loader.plan.exec.process.internal.ResultSetProcessorImpl - Preparing collection intializer : [com.roo.esperanza.domain.Participant.necessitys#2]
2016-05-04 19:13:13,224 [main] DEBUG org.hibernate.loader.plan.exec.process.internal.ResultSetProcessorImpl - Starting ResultSet row #0
2016-05-04 19:13:13,228 [main] DEBUG org.springframework.beans.factory.annotation.InjectionMetadata - Processing injected method of bean &apos;com.roo.esperanza.domain.Necessity&apos;: PersistenceElement for transient javax.persistence.EntityManager com.roo.esperanza.domain.Publication.entityManager
2016-05-04 19:13:13,228 [main] DEBUG org.springframework.beans.factory.support.DefaultListableBeanFactory - Returning cached instance of singleton bean &apos;entityManagerFactory&apos;
2016-05-04 19:13:13,230 [main] DEBUG org.hibernate.loader.plan.exec.process.internal.CollectionReferenceInitializerImpl - Found row of collection: [com.roo.esperanza.domain.Participant.necessitys#2]
2016-05-04 19:13:13,230 [main] DEBUG org.hibernate.engine.internal.TwoPhaseLoad - Resolving associations for [com.roo.esperanza.domain.Necessity#2]
2016-05-04 19:13:13,230 [main] DEBUG org.hibernate.engine.internal.TwoPhaseLoad - Done materializing entity [com.roo.esperanza.domain.Necessity#2]
2016-05-04 19:13:13,230 [main] DEBUG org.hibernate.engine.loading.internal.CollectionLoadContext - 1 collections were found in result set for role: com.roo.esperanza.domain.Participant.necessitys
2016-05-04 19:13:13,230 [main] DEBUG org.hibernate.engine.loading.internal.CollectionLoadContext - Collection fully initialized: [com.roo.esperanza.domain.Participant.necessitys#2]
2016-05-04 19:13:13,230 [main] DEBUG org.hibernate.engine.loading.internal.CollectionLoadContext - 1 collections initialized for role: com.roo.esperanza.domain.Participant.necessitys
2016-05-04 19:13:13,230 [main] DEBUG org.hibernate.loader.collection.plan.AbstractLoadPlanBasedCollectionInitializer - Done loading collection
2016-05-04 19:13:13,231 [main] DEBUG org.hibernate.loader.collection.plan.AbstractLoadPlanBasedCollectionInitializer - Loading collection: [com.roo.esperanza.domain.Participant.resources#2]
2016-05-04 19:13:13,231 [main] DEBUG org.hibernate.SQL - select resources0_.participant_owner as particip5_13_0_, resources0_.id as id1_22_0_, resources0_.id as id1_22_1_, resources0_.id_resource as id_resou2_22_1_, resources0_.participant_owner as particip5_22_1_, resources0_.resource_type as resource3_22_1_, resources0_.version as version4_22_1_ from resource resources0_ where resources0_.participant_owner=?
2016-05-04 19:13:13,231 [main] DEBUG org.hibernate.loader.plan.exec.process.internal.ResultSetProcessorImpl - Preparing collection intializer : [com.roo.esperanza.domain.Participant.resources#2]
2016-05-04 19:13:13,231 [main] DEBUG org.hibernate.engine.loading.internal.CollectionLoadContext - 1 collections were found in result set for role: com.roo.esperanza.domain.Participant.resources
2016-05-04 19:13:13,231 [main] DEBUG org.hibernate.engine.loading.internal.CollectionLoadContext - Collection fully initialized: [com.roo.esperanza.domain.Participant.resources#2]
2016-05-04 19:13:13,231 [main] DEBUG org.hibernate.engine.loading.internal.CollectionLoadContext - 1 collections initialized for role: com.roo.esperanza.domain.Participant.resources
2016-05-04 19:13:13,232 [main] DEBUG org.hibernate.loader.collection.plan.AbstractLoadPlanBasedCollectionInitializer - Done loading collection
2016-05-04 19:13:13,232 [main] DEBUG org.hibernate.loader.collection.plan.AbstractLoadPlanBasedCollectionInitializer - Loading collection: [com.roo.esperanza.domain.Institution.arrayMutimedia#2]
2016-05-04 19:13:13,232 [main] DEBUG org.hibernate.SQL - select arraymutim0_.participant as particip1_13_0_, arraymutim0_.array_mutimedia as array_mu2_14_0_, multimedia1_.id as id1_11_1_, multimedia1_.description as descript2_11_1_, multimedia1_.multimedia_type as multimed3_11_1_, multimedia1_.path as path4_11_1_, multimedia1_.version as version5_11_1_ from participant_array_mutimedia arraymutim0_ inner join multimedia multimedia1_ on arraymutim0_.array_mutimedia=multimedia1_.id where arraymutim0_.participant=?
2016-05-04 19:13:13,233 [main] DEBUG org.hibernate.loader.plan.exec.process.internal.ResultSetProcessorImpl - Preparing collection intializer : [com.roo.esperanza.domain.Institution.arrayMutimedia#2]
2016-05-04 19:13:13,233 [main] DEBUG org.hibernate.loader.plan.exec.process.internal.ResultSetProcessorImpl - Starting ResultSet row #0
2016-05-04 19:13:13,235 [main] DEBUG org.springframework.beans.factory.annotation.InjectionMetadata - Processing injected method of bean &apos;com.roo.esperanza.domain.Multimedia&apos;: PersistenceElement for transient javax.persistence.EntityManager com.roo.esperanza.domain.Multimedia.entityManager
2016-05-04 19:13:13,235 [main] DEBUG org.springframework.beans.factory.support.DefaultListableBeanFactory - Returning cached instance of singleton bean &apos;entityManagerFactory&apos;
2016-05-04 19:13:13,236 [main] DEBUG org.hibernate.loader.plan.exec.process.internal.CollectionReferenceInitializerImpl - Found row of collection: [com.roo.esperanza.domain.Institution.arrayMutimedia#2]
2016-05-04 19:13:13,236 [main] DEBUG org.hibernate.loader.plan.exec.process.internal.ResultSetProcessorImpl - Starting ResultSet row #1
2016-05-04 19:13:13,236 [main] DEBUG org.springframework.beans.factory.annotation.InjectionMetadata - Processing injected method of bean &apos;com.roo.esperanza.domain.Multimedia&apos;: PersistenceElement for transient javax.persistence.EntityManager com.roo.esperanza.domain.Multimedia.entityManager
2016-05-04 19:13:13,236 [main] DEBUG org.springframework.beans.factory.support.DefaultListableBeanFactory - Returning cached instance of singleton bean &apos;entityManagerFactory&apos;
2016-05-04 19:13:13,236 [main] DEBUG org.hibernate.loader.plan.exec.process.internal.CollectionReferenceInitializerImpl - Found row of collection: [com.roo.esperanza.domain.Institution.arrayMutimedia#2]
2016-05-04 19:13:13,236 [main] DEBUG org.hibernate.loader.plan.exec.process.internal.ResultSetProcessorImpl - Starting ResultSet row #2
2016-05-04 19:13:13,236 [main] DEBUG org.springframework.beans.factory.annotation.InjectionMetadata - Processing injected method of bean &apos;com.roo.esperanza.domain.Multimedia&apos;: PersistenceElement for transient javax.persistence.EntityManager com.roo.esperanza.domain.Multimedia.entityManager
2016-05-04 19:13:13,236 [main] DEBUG org.springframework.beans.factory.support.DefaultListableBeanFactory - Returning cached instance of singleton bean &apos;entityManagerFactory&apos;
2016-05-04 19:13:13,237 [main] DEBUG org.hibernate.loader.plan.exec.process.internal.CollectionReferenceInitializerImpl - Found row of collection: [com.roo.esperanza.domain.Institution.arrayMutimedia#2]
2016-05-04 19:13:13,237 [main] DEBUG org.hibernate.loader.plan.exec.process.internal.ResultSetProcessorImpl - Starting ResultSet row #3
2016-05-04 19:13:13,237 [main] DEBUG org.springframework.beans.factory.annotation.InjectionMetadata - Processing injected method of bean &apos;com.roo.esperanza.domain.Multimedia&apos;: PersistenceElement for transient javax.persistence.EntityManager com.roo.esperanza.domain.Multimedia.entityManager
2016-05-04 19:13:13,237 [main] DEBUG org.springframework.beans.factory.support.DefaultListableBeanFactory - Returning cached instance of singleton bean &apos;entityManagerFactory&apos;
2016-05-04 19:13:13,237 [main] DEBUG org.hibernate.loader.plan.exec.process.internal.CollectionReferenceInitializerImpl - Found row of collection: [com.roo.esperanza.domain.Institution.arrayMutimedia#2]
2016-05-04 19:13:13,237 [main] DEBUG org.hibernate.engine.internal.TwoPhaseLoad - Resolving associations for [com.roo.esperanza.domain.Multimedia#1]
2016-05-04 19:13:13,237 [main] DEBUG org.hibernate.engine.internal.TwoPhaseLoad - Done materializing entity [com.roo.esperanza.domain.Multimedia#1]
2016-05-04 19:13:13,237 [main] DEBUG org.hibernate.engine.internal.TwoPhaseLoad - Resolving associations for [com.roo.esperanza.domain.Multimedia#2]
2016-05-04 19:13:13,237 [main] DEBUG org.hibernate.engine.internal.TwoPhaseLoad - Done materializing entity [com.roo.esperanza.domain.Multimedia#2]
2016-05-04 19:13:13,237 [main] DEBUG org.hibernate.engine.internal.TwoPhaseLoad - Resolving associations for [com.roo.esperanza.domain.Multimedia#3]
2016-05-04 19:13:13,237 [main] DEBUG org.hibernate.engine.internal.TwoPhaseLoad - Done materializing entity [com.roo.esperanza.domain.Multimedia#3]
2016-05-04 19:13:13,237 [main] DEBUG org.hibernate.engine.internal.TwoPhaseLoad - Resolving associations for [com.roo.esperanza.domain.Multimedia#4]
2016-05-04 19:13:13,237 [main] DEBUG org.hibernate.engine.internal.TwoPhaseLoad - Done materializing entity [com.roo.esperanza.domain.Multimedia#4]
2016-05-04 19:13:13,237 [main] DEBUG org.hibernate.engine.loading.internal.CollectionLoadContext - 1 collections were found in result set for role: com.roo.esperanza.domain.Institution.arrayMutimedia
2016-05-04 19:13:13,237 [main] DEBUG org.hibernate.engine.loading.internal.CollectionLoadContext - Collection fully initialized: [com.roo.esperanza.domain.Institution.arrayMutimedia#2]
2016-05-04 19:13:13,237 [main] DEBUG org.hibernate.engine.loading.internal.CollectionLoadContext - 1 collections initialized for role: com.roo.esperanza.domain.Institution.arrayMutimedia
2016-05-04 19:13:13,238 [main] DEBUG org.hibernate.loader.collection.plan.AbstractLoadPlanBasedCollectionInitializer - Done loading collection
2016-05-04 19:13:13,238 [main] DEBUG org.springframework.beans.factory.support.DefaultListableBeanFactory - Returning cached instance of singleton bean &apos;transactionManager&apos;
2016-05-04 19:13:13,238 [main] DEBUG org.springframework.orm.jpa.JpaTransactionManager - Found thread-bound EntityManager [org.hibernate.jpa.internal.EntityManagerImpl@67b8d45] for JPA transaction
2016-05-04 19:13:13,238 [main] DEBUG org.springframework.orm.jpa.JpaTransactionManager - Participating in existing transaction
2016-05-04 19:13:13,238 [main] DEBUG org.hibernate.event.internal.AbstractFlushingEventListener - Processing flush-time cascades
2016-05-04 19:13:13,238 [main] DEBUG org.hibernate.event.internal.AbstractFlushingEventListener - Dirty checking collections
2016-05-04 19:13:13,239 [main] DEBUG org.hibernate.engine.internal.Collections - Collection found: [com.roo.esperanza.domain.Participant.arrayScore#3], was: [com.roo.esperanza.domain.Participant.arrayScore#3] (uninitialized)
2016-05-04 19:13:13,239 [main] DEBUG org.hibernate.engine.internal.Collections - Collection found: [com.roo.esperanza.domain.Participant.donations#3], was: [com.roo.esperanza.domain.Participant.donations#3] (uninitialized)
2016-05-04 19:13:13,239 [main] DEBUG org.hibernate.engine.internal.Collections - Collection found: [com.roo.esperanza.domain.Participant.necessitys#3], was: [com.roo.esperanza.domain.Participant.necessitys#3] (uninitialized)
2016-05-04 19:13:13,239 [main] DEBUG org.hibernate.engine.internal.Collections - Collection found: [com.roo.esperanza.domain.Participant.resources#3], was: [com.roo.esperanza.domain.Participant.resources#3] (uninitialized)
2016-05-04 19:13:13,239 [main] DEBUG org.hibernate.engine.internal.Collections - Collection found: [com.roo.esperanza.domain.Institution.arrayMutimedia#3], was: [com.roo.esperanza.domain.Institution.arrayMutimedia#3] (uninitialized)
2016-05-04 19:13:13,239 [main] DEBUG org.hibernate.engine.internal.Collections - Collection found: [com.roo.esperanza.domain.Participant.arrayScore#4], was: [com.roo.esperanza.domain.Participant.arrayScore#4] (uninitialized)
2016-05-04 19:13:13,239 [main] DEBUG org.hibernate.engine.internal.Collections - Collection found: [com.roo.esperanza.domain.Participant.donations#4], was: [com.roo.esperanza.domain.Participant.donations#4] (uninitialized)
2016-05-04 19:13:13,239 [main] DEBUG org.hibernate.engine.internal.Collections - Collection found: [com.roo.esperanza.domain.Participant.necessitys#4], was: [com.roo.esperanza.domain.Participant.necessitys#4] (uninitialized)
2016-05-04 19:13:13,239 [main] DEBUG org.hibernate.engine.internal.Collections - Collection found: [com.roo.esperanza.domain.Participant.resources#4], was: [com.roo.esperanza.domain.Participant.resources#4] (uninitialized)
2016-05-04 19:13:13,239 [main] DEBUG org.hibernate.engine.internal.Collections - Collection found: [com.roo.esperanza.domain.Institution.arrayMutimedia#4], was: [com.roo.esperanza.domain.Institution.arrayMutimedia#4] (uninitialized)
2016-05-04 19:13:13,239 [main] DEBUG org.hibernate.engine.internal.Collections - Collection found: [com.roo.esperanza.domain.User.notifications#2], was: [com.roo.esperanza.domain.User.notifications#2] (uninitialized)
2016-05-04 19:13:13,239 [main] DEBUG org.hibernate.engine.internal.Collections - Collection found: [com.roo.esperanza.domain.User.notifications#3], was: [com.roo.esperanza.domain.User.notifications#3] (uninitialized)
2016-05-04 19:13:13,239 [main] DEBUG org.hibernate.engine.internal.Collections - Collection found: [com.roo.esperanza.domain.User.notifications#4], was: [com.roo.esperanza.domain.User.notifications#4] (uninitialized)
2016-05-04 19:13:13,239 [main] DEBUG org.hibernate.engine.internal.Collections - Collection dereferenced: [com.roo.esperanza.domain.Participant.arrayScore#2]
2016-05-04 19:13:13,239 [main] DEBUG org.hibernate.engine.internal.Collections - Collection dereferenced: [com.roo.esperanza.domain.Participant.donations#2]
2016-05-04 19:13:13,239 [main] DEBUG org.hibernate.engine.internal.Collections - Collection dereferenced: [com.roo.esperanza.domain.Participant.necessitys#2]
2016-05-04 19:13:13,239 [main] DEBUG org.hibernate.engine.internal.Collections - Collection dereferenced: [com.roo.esperanza.domain.Participant.resources#2]
2016-05-04 19:13:13,239 [main] DEBUG org.hibernate.engine.internal.Collections - Collection dereferenced: [com.roo.esperanza.domain.Institution.arrayMutimedia#2]
2016-05-04 19:13:13,239 [main] DEBUG org.hibernate.event.internal.AbstractFlushingEventListener - Flushed: 0 insertions, 0 updates, 6 deletions to 21 objects
2016-05-04 19:13:13,239 [main] DEBUG org.hibernate.event.internal.AbstractFlushingEventListener - Flushed: 0 (re)creations, 0 updates, 5 removals to 18 collections
2016-05-04 19:13:13,239 [main] DEBUG org.hibernate.internal.util.EntityPrinter - Listing entities:
2016-05-04 19:13:13,240 [main] DEBUG org.hibernate.internal.util.EntityPrinter - com.roo.esperanza.domain.Province{country=com.roo.esperanza.domain.Country#10, name=Mendoza, id=11, version=1}
2016-05-04 19:13:13,240 [main] DEBUG org.hibernate.internal.util.EntityPrinter - com.roo.esperanza.domain.ConfigNotification{needs=null, receiveMails=true, claimDonation=null, denouncements=null, stateComplaintFiled=false, donationRequest=null, publicactionStatus=false, version=1, thanksToDonation=null, donationReceived=true, complaintReceived=true, donationGoods=true, suscriptions=true, id=1, publications=null, statistics=true}
2016-05-04 19:13:13,240 [main] DEBUG org.hibernate.internal.util.EntityPrinter - com.roo.esperanza.domain.Multimedia{path=images/gallery/2/2-1454028850637.jpg, multimediaType=Image, description=niño comiendo, id=1, version=0}
2016-05-04 19:13:13,240 [main] DEBUG org.hibernate.internal.util.EntityPrinter - com.roo.esperanza.domain.Institution{date=2014-01-18 23:00:00.0, longDescription=Lorem ipsum dolor sit amet, consectetur adipiscing elit. Suspendisse nec cursus odio, semper commodo magna., address=com.roo.esperanza.domain.Address#2, donations=[], arrayMutimedia=[com.roo.esperanza.domain.Multimedia#2, com.roo.esperanza.domain.Multimedia#3, com.roo.esperanza.domain.Multimedia#4, com.roo.esperanza.domain.Multimedia#1], necessitys=[com.roo.esperanza.domain.Necessity#2], resources=[], shortDescription=Este es un usuario de prueba nueva test, version=4, profilePicture=images/profileUser/institution.png, arrayScore=[], phone=null, cbu=null, id=2, category=com.roo.esperanza.domain.Category#8, user=com.roo.esperanza.domain.User#2, socialReason=Comedor Buenos dias, cellPhone=null}
2016-05-04 19:13:13,240 [main] DEBUG org.hibernate.internal.util.EntityPrinter - com.roo.esperanza.domain.Address{country=com.roo.esperanza.domain.Country#10, address=Lavalle sin numero , province=com.roo.esperanza.domain.Province#11, city=Lavalle, postalCode=5580, id=2, version=3}
2016-05-04 19:13:13,240 [main] DEBUG org.hibernate.internal.util.EntityPrinter - com.roo.esperanza.domain.User{emailAddress=comedor_buenos_dias@hotmail.com, password=a665a45920422f9d417e4867efdc4fb8a04a1f3fff1fa07e998e86f7f7a27ae3, id=2, activationDate=2016-01-19 22:22:35.0, activationKey=activationKey:1555833289, locked=false, configNotification=com.roo.esperanza.domain.ConfigNotification#1, version=1, enabled=false, notifications=&lt;uninitialized&gt;, rol=com.roo.esperanza.domain.Role#3}
2016-05-04 19:13:13,240 [main] DEBUG org.hibernate.internal.util.EntityPrinter - com.roo.esperanza.domain.Necessity{date=null, creator=com.roo.esperanza.domain.Participant#2, detailedDescription=null, statusType=Accept, link=null, description=2 hollas, id=2, history=null, donationType=Other, version=0, priorityType=Medium}
2016-05-04 19:13:13,240 [main] DEBUG org.hibernate.internal.util.EntityPrinter - com.roo.esperanza.domain.Multimedia{path=images/gallery/2/2-1454030878735.jpg, multimediaType=Image, description=comedor vista, id=2, version=0}
2016-05-04 19:13:13,240 [main] DEBUG org.hibernate.internal.util.EntityPrinter - com.roo.esperanza.domain.Institution{date=2000-11-14 09:00:00.0, longDescription=Lorem ipsum dolor sit amet, consectetur adipiscing elit. Suspendisse nec cursus odio, semper commodo magna., address=com.roo.esperanza.domain.Address#3, donations=&lt;uninitialized&gt;, arrayMutimedia=&lt;uninitialized&gt;, necessitys=&lt;uninitialized&gt;, resources=&lt;uninitialized&gt;, shortDescription=Este es un usuario de prueba nueva test, version=1, profilePicture=images/profileUser/institution.png, arrayScore=&lt;uninitialized&gt;, phone=261423786, cbu=null, id=3, category=null, user=com.roo.esperanza.domain.User#3, socialReason=Sala de parto despertar, cellPhone=null}
2016-05-04 19:13:13,240 [main] DEBUG org.hibernate.internal.util.EntityPrinter - com.roo.esperanza.domain.Role{id=3, roleType=ROLE_INSTITUTION, roleDescription=participante institucion del sitio, version=1}
2016-05-04 19:13:13,240 [main] DEBUG org.hibernate.internal.util.EntityPrinter - com.roo.esperanza.domain.Address{country=com.roo.esperanza.domain.Country#10, address=Buenos Aires 234, province=com.roo.esperanza.domain.Province#11, city=Ciudad, postalCode=5550, id=3, version=0}
2016-05-04 19:13:13,240 [main] DEBUG org.hibernate.internal.util.EntityPrinter - com.roo.esperanza.domain.User{emailAddress=despertar@gmail.com, password=a665a45920422f9d417e4867efdc4fb8a04a1f3fff1fa07e998e86f7f7a27ae3, id=3, activationDate=2016-03-11 08:46:58.0, activationKey=activationKey:1555823290, locked=false, configNotification=com.roo.esperanza.domain.ConfigNotification#3, version=3, enabled=true, notifications=&lt;uninitialized&gt;, rol=com.roo.esperanza.domain.Role#3}
2016-05-04 19:13:13,240 [main] DEBUG org.hibernate.internal.util.EntityPrinter - com.roo.esperanza.domain.ConfigNotification{needs=null, receiveMails=true, claimDonation=null, denouncements=null, stateComplaintFiled=true, donationRequest=null, publicactionStatus=true, version=1, thanksToDonation=null, donationReceived=true, complaintReceived=true, donationGoods=true, suscriptions=true, id=3, publications=null, statistics=true}
2016-05-04 19:13:13,240 [main] DEBUG org.hibernate.internal.util.EntityPrinter - com.roo.esperanza.domain.Multimedia{path=http://www.youtube.com/embed/T8n8Pqu8IbM, multimediaType=Video, description=comedor historia, id=3, version=0}
2016-05-04 19:13:13,240 [main] DEBUG org.hibernate.internal.util.EntityPrinter - com.roo.esperanza.domain.Institution{date=2010-03-10 13:00:00.0, longDescription=null, address=com.roo.esperanza.domain.Address#4, donations=&lt;uninitialized&gt;, arrayMutimedia=&lt;uninitialized&gt;, necessitys=&lt;uninitialized&gt;, resources=&lt;uninitialized&gt;, shortDescription=Este es un usuario de prueba nueva test, version=1, profilePicture=images/profileUser/institution.png, arrayScore=&lt;uninitialized&gt;, phone=null, cbu=null, id=4, category=null, user=com.roo.esperanza.domain.User#4, socialReason=Asilo nuevo horizonte, cellPhone=null}
2016-05-04 19:13:13,240 [main] DEBUG org.hibernate.internal.util.EntityPrinter - com.roo.esperanza.domain.Address{country=com.roo.esperanza.domain.Country#10, address=9 de julio 100, province=com.roo.esperanza.domain.Province#11, city=Lujan, postalCode=5560, id=4, version=0}
2016-05-04 19:13:13,240 [main] DEBUG org.hibernate.internal.util.EntityPrinter - com.roo.esperanza.domain.User{emailAddress=asilounnuevohorizonte@yahoo.com.ar, password=a665a45920422f9d417e4867efdc4fb8a04a1f3fff1fa07e998e86f7f7a27ae3, id=4, activationDate=2016-02-05 22:10:00.0, activationKey=activationKey:1555883291, locked=false, configNotification=com.roo.esperanza.domain.ConfigNotification#4, version=1, enabled=true, notifications=&lt;uninitialized&gt;, rol=com.roo.esperanza.domain.Role#3}
2016-05-04 19:13:13,240 [main] DEBUG org.hibernate.internal.util.EntityPrinter - com.roo.esperanza.domain.ConfigNotification{needs=null, receiveMails=true, claimDonation=null, denouncements=null, stateComplaintFiled=false, donationRequest=null, publicactionStatus=false, version=1, thanksToDonation=null, donationReceived=true, complaintReceived=false, donationGoods=true, suscriptions=true, id=4, publications=null, statistics=false}
2016-05-04 19:13:13,240 [main] DEBUG org.hibernate.internal.util.EntityPrinter - com.roo.esperanza.domain.Multimedia{path=http://www.youtube.com/embed/k7AttHngMIM, multimediaType=Video, description=comedor vista, id=4, version=null}
2016-05-04 19:13:13,240 [main] DEBUG org.hibernate.internal.util.EntityPrinter - com.roo.esperanza.domain.Category{parent=null, name=Comedor, id=8, version=1}
2016-05-04 19:13:13,240 [main] DEBUG org.hibernate.internal.util.EntityPrinter - com.roo.esperanza.domain.Country{code=AR, name=Argentina, id=10, version=1}
2016-05-04 19:13:13,241 [main] DEBUG org.hibernate.persister.collection.AbstractCollectionPersister - Deleting collection: [com.roo.esperanza.domain.Participant.necessitys#2]
2016-05-04 19:13:13,259 [main] DEBUG org.hibernate.SQL - delete from participant_necessitys where participant=?
2016-05-04 19:13:13,260 [main] DEBUG org.hibernate.persister.collection.AbstractCollectionPersister - Done deleting collection
2016-05-04 19:13:13,260 [main] DEBUG org.hibernate.persister.collection.AbstractCollectionPersister - Deleting collection: [com.roo.esperanza.domain.Institution.arrayMutimedia#2]
2016-05-04 19:13:13,260 [main] DEBUG org.hibernate.SQL - delete from participant_array_mutimedia where participant=?
2016-05-04 19:13:13,261 [main] DEBUG org.hibernate.persister.collection.AbstractCollectionPersister - Done deleting collection
2016-05-04 19:13:13,261 [main] DEBUG org.hibernate.SQL - delete from publication where id=? and version=?
2016-05-04 19:13:13,262 [main] DEBUG org.hibernate.SQL - delete from multimedia where id=? and version=?
2016-05-04 19:13:13,262 [main] DEBUG org.hibernate.SQL - delete from multimedia where id=? and version=?
2016-05-04 19:13:13,263 [main] DEBUG org.hibernate.SQL - delete from multimedia where id=? and version=?
2016-05-04 19:13:13,264 [main] DEBUG org.hibernate.jpa.spi.AbstractEntityManagerImpl - Mark transaction for rollback
2016-05-04 19:13:13,264 [main] DEBUG org.springframework.orm.jpa.JpaTransactionManager - Participating transaction failed - marking existing transaction as rollback-only
2016-05-04 19:13:13,265 [main] DEBUG org.springframework.orm.jpa.JpaTransactionManager - Setting JPA transaction on EntityManager [org.hibernate.jpa.internal.EntityManagerImpl@67b8d45] rollback-only
2016-05-04 19:13:13,265 [main] DEBUG org.springframework.test.context.transaction.TransactionalTestExecutionListener - No method-level @Rollback override: using default rollback [true] for test context [TestContext@2d9de284 testClass = InstitutionIntegrationTest, testInstance = com.roo.esperanza.domain.InstitutionIntegrationTest@9f1ca74, testMethod = testRemove@InstitutionIntegrationTest, testException = org.springframework.orm.jpa.JpaOptimisticLockingFailureException: Row was updated or deleted by another transaction (or unsaved-value mapping was incorrect) : [com.roo.esperanza.domain.Multimedia#4]; nested exception is javax.persistence.OptimisticLockException: Row was updated or deleted by another transaction (or unsaved-value mapping was incorrect) : [com.roo.esperanza.domain.Multimedia#4], mergedContextConfiguration = [MergedContextConfiguration@7540160e testClass = InstitutionIntegrationTest, locations = &apos;{classpath*:/META-INF/spring/applicationContext*.xml}&apos;, classes = &apos;{}&apos;, contextInitializerClasses = &apos;[]&apos;, activeProfiles = &apos;{}&apos;, contextLoader = &apos;org.springframework.test.context.support.DelegatingSmartContextLoader&apos;, parent = [null]]]
2016-05-04 19:13:13,265 [main] DEBUG org.springframework.orm.jpa.JpaTransactionManager - Initiating transaction rollback
2016-05-04 19:13:13,265 [main] DEBUG org.springframework.orm.jpa.JpaTransactionManager - Rolling back JPA transaction on EntityManager [org.hibernate.jpa.internal.EntityManagerImpl@67b8d45]
2016-05-04 19:13:13,265 [main] DEBUG org.hibernate.engine.transaction.spi.AbstractTransactionImpl - rolling back
2016-05-04 19:13:13,265 [main] DEBUG org.hibernate.engine.transaction.internal.jdbc.JdbcTransaction - rolled JDBC Connection
2016-05-04 19:13:13,265 [main] DEBUG org.hibernate.engine.transaction.internal.jdbc.JdbcTransaction - re-enabling autocommit
2016-05-04 19:13:13,266 [main] DEBUG org.springframework.orm.jpa.JpaTransactionManager - Closing JPA EntityManager [org.hibernate.jpa.internal.EntityManagerImpl@67b8d45] after transaction
2016-05-04 19:13:13,266 [main] DEBUG org.springframework.orm.jpa.EntityManagerFactoryUtils - Closing JPA EntityManager
2016-05-04 19:13:13,266 [main] DEBUG org.hibernate.engine.jdbc.internal.JdbcCoordinatorImpl - HHH000420: Closing un-released batch
2016-05-04 19:13:13,266 [main] DEBUG org.hibernate.engine.jdbc.internal.LogicalConnectionImpl - Releasing JDBC connection
2016-05-04 19:13:13,266 [main] DEBUG org.hibernate.engine.jdbc.internal.LogicalConnectionImpl - Released JDBC connection
2016-05-04 19:13:13,266 [main] INFO  org.springframework.test.context.transaction.TransactionalTestExecutionListener - Rolled back transaction after test execution for test context [TestContext@2d9de284 testClass = InstitutionIntegrationTest, testInstance = com.roo.esperanza.domain.InstitutionIntegrationTest@9f1ca74, testMethod = testRemove@InstitutionIntegrationTest, testException = org.springframework.orm.jpa.JpaOptimisticLockingFailureException: Row was updated or deleted by another transaction (or unsaved-value mapping was incorrect) : [com.roo.esperanza.domain.Multimedia#4]; nested exception is javax.persistence.OptimisticLockException: Row was updated or deleted by another transaction (or unsaved-value mapping was incorrect) : [com.roo.esperanza.domain.Multimedia#4], mergedContextConfiguration = [MergedContextConfiguration@7540160e testClass = InstitutionIntegrationTest, locations = &apos;{classpath*:/META-INF/spring/applicationContext*.xml}&apos;, classes = &apos;{}&apos;, contextInitializerClasses = &apos;[]&apos;, activeProfiles = &apos;{}&apos;, contextLoader = &apos;org.springframework.test.context.support.DelegatingSmartContextLoader&apos;, parent = [null]]]
2016-05-04 19:13:13,266 [main] DEBUG org.springframework.test.context.support.DirtiesContextTestExecutionListener - After test method: context [[TestContext@2d9de284 testClass = InstitutionIntegrationTest, testInstance = com.roo.esperanza.domain.InstitutionIntegrationTest@9f1ca74, testMethod = testRemove@InstitutionIntegrationTest, testException = org.springframework.orm.jpa.JpaOptimisticLockingFailureException: Row was updated or deleted by another transaction (or unsaved-value mapping was incorrect) : [com.roo.esperanza.domain.Multimedia#4]; nested exception is javax.persistence.OptimisticLockException: Row was updated or deleted by another transaction (or unsaved-value mapping was incorrect) : [com.roo.esperanza.domain.Multimedia#4], mergedContextConfiguration = [MergedContextConfiguration@7540160e testClass = InstitutionIntegrationTest, locations = &apos;{classpath*:/META-INF/spring/applicationContext*.xml}&apos;, classes = &apos;{}&apos;, contextInitializerClasses = &apos;[]&apos;, activeProfiles = &apos;{}&apos;, contextLoader = &apos;org.springframework.test.context.support.DelegatingSmartContextLoader&apos;, parent = [null]]]], class dirties context [false], class mode [null], method dirties context [false].
</system-out>
  </testcase>
  <testcase classname="com.roo.esperanza.domain.InstitutionIntegrationTest" name="testFindInstitution" time="0.018"/>
</testsuite>