<?xml version="1.0" encoding="UTF-8" ?>
<testsuite tests="9" failures="2" name="com.roo.esperanza.domain.PuntuationIntegrationTest" time="0.09" errors="1" skipped="0">
  <properties>
    <property name="java.runtime.name" value="Java(TM) SE Runtime Environment"/>
    <property name="sun.boot.library.path" value="/Library/Java/JavaVirtualMachines/jdk1.8.0_65.jdk/Contents/Home/jre/lib"/>
    <property name="java.vm.version" value="25.65-b01"/>
    <property name="user.country.format" value="AR"/>
    <property name="gopherProxySet" value="false"/>
    <property name="java.vm.vendor" value="Oracle Corporation"/>
    <property name="maven.multiModuleProjectDirectory" value="/Users/admin/Documents/workspace/trabajoFinal/Implementacion/Esperanza"/>
    <property name="java.vendor.url" value="http://java.oracle.com/"/>
    <property name="path.separator" value=":"/>
    <property name="guice.disable.misplaced.annotation.check" value="true"/>
    <property name="java.vm.name" value="Java HotSpot(TM) 64-Bit Server VM"/>
    <property name="file.encoding.pkg" value="sun.io"/>
    <property name="user.country" value="ES"/>
    <property name="sun.java.launcher" value="SUN_STANDARD"/>
    <property name="sun.os.patch.level" value="unknown"/>
    <property name="java.vm.specification.name" value="Java Virtual Machine Specification"/>
    <property name="user.dir" value="/Users/admin/Documents/workspace/trabajoFinal/Implementacion/Esperanza"/>
    <property name="java.runtime.version" value="1.8.0_65-b17"/>
    <property name="java.awt.graphicsenv" value="sun.awt.CGraphicsEnvironment"/>
    <property name="java.endorsed.dirs" value="/Library/Java/JavaVirtualMachines/jdk1.8.0_65.jdk/Contents/Home/jre/lib/endorsed"/>
    <property name="os.arch" value="x86_64"/>
    <property name="java.io.tmpdir" value="/var/folders/_6/p8ltxxnd3cjf19y18dvmfhrm0000gn/T/"/>
    <property name="line.separator" value="
"/>
    <property name="java.vm.specification.vendor" value="Oracle Corporation"/>
    <property name="os.name" value="Mac OS X"/>
    <property name="classworlds.conf" value="/Users/admin/Documents/apache-maven-3.3.3/bin/m2.conf"/>
    <property name="sun.jnu.encoding" value="UTF-8"/>
    <property name="java.library.path" value="/Users/admin/Library/Java/Extensions:/Library/Java/Extensions:/Network/Library/Java/Extensions:/System/Library/Java/Extensions:/usr/lib/java:."/>
    <property name="java.specification.name" value="Java Platform API Specification"/>
    <property name="java.class.version" value="52.0"/>
    <property name="sun.management.compiler" value="HotSpot 64-Bit Tiered Compilers"/>
    <property name="os.version" value="10.11.4"/>
    <property name="http.nonProxyHosts" value="local|*.local|169.254/16|*.169.254/16"/>
    <property name="user.home" value="/Users/admin"/>
    <property name="user.timezone" value="America/Argentina/Buenos_Aires"/>
    <property name="java.awt.printerjob" value="sun.lwawt.macosx.CPrinterJob"/>
    <property name="java.specification.version" value="1.8"/>
    <property name="file.encoding" value="UTF-8"/>
    <property name="user.name" value="admin"/>
    <property name="java.class.path" value="/Users/admin/Documents/apache-maven-3.3.3/boot/plexus-classworlds-2.5.2.jar"/>
    <property name="java.vm.specification.version" value="1.8"/>
    <property name="sun.arch.data.model" value="64"/>
    <property name="java.home" value="/Library/Java/JavaVirtualMachines/jdk1.8.0_65.jdk/Contents/Home/jre"/>
    <property name="sun.java.command" value="org.codehaus.plexus.classworlds.launcher.Launcher clean install"/>
    <property name="java.specification.vendor" value="Oracle Corporation"/>
    <property name="user.language" value="es"/>
    <property name="awt.toolkit" value="sun.lwawt.macosx.LWCToolkit"/>
    <property name="java.vm.info" value="mixed mode"/>
    <property name="java.version" value="1.8.0_65"/>
    <property name="java.ext.dirs" value="/Users/admin/Library/Java/Extensions:/Library/Java/JavaVirtualMachines/jdk1.8.0_65.jdk/Contents/Home/jre/lib/ext:/Library/Java/Extensions:/Network/Library/Java/Extensions:/System/Library/Java/Extensions:/usr/lib/java"/>
    <property name="sun.boot.class.path" value="/Library/Java/JavaVirtualMachines/jdk1.8.0_65.jdk/Contents/Home/jre/lib/resources.jar:/Library/Java/JavaVirtualMachines/jdk1.8.0_65.jdk/Contents/Home/jre/lib/rt.jar:/Library/Java/JavaVirtualMachines/jdk1.8.0_65.jdk/Contents/Home/jre/lib/sunrsasign.jar:/Library/Java/JavaVirtualMachines/jdk1.8.0_65.jdk/Contents/Home/jre/lib/jsse.jar:/Library/Java/JavaVirtualMachines/jdk1.8.0_65.jdk/Contents/Home/jre/lib/jce.jar:/Library/Java/JavaVirtualMachines/jdk1.8.0_65.jdk/Contents/Home/jre/lib/charsets.jar:/Library/Java/JavaVirtualMachines/jdk1.8.0_65.jdk/Contents/Home/jre/lib/jfr.jar:/Library/Java/JavaVirtualMachines/jdk1.8.0_65.jdk/Contents/Home/jre/classes"/>
    <property name="java.vendor" value="Oracle Corporation"/>
    <property name="maven.home" value="/Users/admin/Documents/apache-maven-3.3.3"/>
    <property name="file.separator" value="/"/>
    <property name="java.vendor.url.bug" value="http://bugreport.sun.com/bugreport/"/>
    <property name="sun.cpu.endian" value="little"/>
    <property name="sun.io.unicode.encoding" value="UnicodeBig"/>
    <property name="socksNonProxyHosts" value="local|*.local|169.254/16|*.169.254/16"/>
    <property name="ftp.nonProxyHosts" value="local|*.local|169.254/16|*.169.254/16"/>
    <property name="sun.cpu.isalist" value=""/>
  </properties>
  <testcase classname="com.roo.esperanza.domain.PuntuationIntegrationTest" name="testFindPuntuation" time="0.011"/>
  <testcase classname="com.roo.esperanza.domain.PuntuationIntegrationTest" name="testFlush" time="0.007"/>
  <testcase classname="com.roo.esperanza.domain.PuntuationIntegrationTest" name="testPersist" time="0.01"/>
  <testcase classname="com.roo.esperanza.domain.PuntuationIntegrationTest" name="testMarkerMethod" time="0.004"/>
  <testcase classname="com.roo.esperanza.domain.PuntuationIntegrationTest" name="testMergeUpdate" time="0.007"/>
  <testcase classname="com.roo.esperanza.domain.PuntuationIntegrationTest" name="testCountPuntuations" time="0.025">
    <failure message="Counter for &apos;Puntuation&apos; incorrectly reported there were no entries" type="java.lang.AssertionError">java.lang.AssertionError: Counter for &apos;Puntuation&apos; incorrectly reported there were no entries
	at org.junit.Assert.fail(Assert.java:88)
	at org.junit.Assert.assertTrue(Assert.java:41)
	at com.roo.esperanza.domain.PuntuationIntegrationTest_Roo_IntegrationTest.ajc$interMethod$com_roo_esperanza_domain_PuntuationIntegrationTest_Roo_IntegrationTest$com_roo_esperanza_domain_PuntuationIntegrationTest$testCountPuntuations(PuntuationIntegrationTest_Roo_IntegrationTest.aj:36)
	at com.roo.esperanza.domain.PuntuationIntegrationTest.testCountPuntuations(PuntuationIntegrationTest.java:1)
	at sun.reflect.NativeMethodAccessorImpl.invoke0(Native Method)
	at sun.reflect.NativeMethodAccessorImpl.invoke(NativeMethodAccessorImpl.java:62)
	at sun.reflect.DelegatingMethodAccessorImpl.invoke(DelegatingMethodAccessorImpl.java:43)
	at java.lang.reflect.Method.invoke(Method.java:497)
	at org.junit.runners.model.FrameworkMethod$1.runReflectiveCall(FrameworkMethod.java:47)
	at org.junit.internal.runners.model.ReflectiveCallable.run(ReflectiveCallable.java:12)
	at org.junit.runners.model.FrameworkMethod.invokeExplosively(FrameworkMethod.java:44)
	at org.junit.internal.runners.statements.InvokeMethod.evaluate(InvokeMethod.java:17)
	at org.springframework.test.context.junit4.statements.RunBeforeTestMethodCallbacks.evaluate(RunBeforeTestMethodCallbacks.java:74)
	at org.springframework.test.context.junit4.statements.RunAfterTestMethodCallbacks.evaluate(RunAfterTestMethodCallbacks.java:83)
	at org.springframework.test.context.junit4.statements.SpringRepeat.evaluate(SpringRepeat.java:72)
	at org.springframework.test.context.junit4.SpringJUnit4ClassRunner.runChild(SpringJUnit4ClassRunner.java:231)
	at org.springframework.test.context.junit4.SpringJUnit4ClassRunner.runChild(SpringJUnit4ClassRunner.java:88)
	at org.junit.runners.ParentRunner$3.run(ParentRunner.java:238)
	at org.junit.runners.ParentRunner$1.schedule(ParentRunner.java:63)
	at org.junit.runners.ParentRunner.runChildren(ParentRunner.java:236)
	at org.junit.runners.ParentRunner.access$000(ParentRunner.java:53)
	at org.junit.runners.ParentRunner$2.evaluate(ParentRunner.java:229)
	at org.springframework.test.context.junit4.statements.RunBeforeTestClassCallbacks.evaluate(RunBeforeTestClassCallbacks.java:61)
	at org.springframework.test.context.junit4.statements.RunAfterTestClassCallbacks.evaluate(RunAfterTestClassCallbacks.java:71)
	at org.junit.runners.ParentRunner.run(ParentRunner.java:309)
	at org.springframework.test.context.junit4.SpringJUnit4ClassRunner.run(SpringJUnit4ClassRunner.java:174)
	at org.apache.maven.surefire.junit4.JUnit4Provider.execute(JUnit4Provider.java:236)
	at org.apache.maven.surefire.junit4.JUnit4Provider.executeTestSet(JUnit4Provider.java:134)
	at org.apache.maven.surefire.junit4.JUnit4Provider.invoke(JUnit4Provider.java:113)
	at sun.reflect.NativeMethodAccessorImpl.invoke0(Native Method)
	at sun.reflect.NativeMethodAccessorImpl.invoke(NativeMethodAccessorImpl.java:62)
	at sun.reflect.DelegatingMethodAccessorImpl.invoke(DelegatingMethodAccessorImpl.java:43)
	at java.lang.reflect.Method.invoke(Method.java:497)
	at org.apache.maven.surefire.util.ReflectionUtils.invokeMethodWithArray(ReflectionUtils.java:189)
	at org.apache.maven.surefire.booter.ProviderFactory$ProviderProxy.invoke(ProviderFactory.java:165)
	at org.apache.maven.surefire.booter.ProviderFactory.invokeProvider(ProviderFactory.java:85)
	at org.apache.maven.surefire.booter.ForkedBooter.runSuitesInProcess(ForkedBooter.java:103)
	at org.apache.maven.surefire.booter.ForkedBooter.main(ForkedBooter.java:74)
</failure>
    <system-out>2016-05-04 19:13:14,845 [main] DEBUG org.springframework.test.annotation.ProfileValueUtils - Retrieved @ProfileValueSourceConfiguration [null] for test class [com.roo.esperanza.domain.PuntuationIntegrationTest]
2016-05-04 19:13:14,845 [main] DEBUG org.springframework.test.annotation.ProfileValueUtils - Retrieved ProfileValueSource type [class org.springframework.test.annotation.SystemProfileValueSource] for class [com.roo.esperanza.domain.PuntuationIntegrationTest]
2016-05-04 19:13:14,845 [main] DEBUG org.springframework.beans.factory.annotation.InjectionMetadata - Processing injected method of bean &apos;com.roo.esperanza.domain.PuntuationIntegrationTest&apos;: AutowiredFieldElement for com.roo.esperanza.domain.PuntuationDataOnDemand com.roo.esperanza.domain.PuntuationIntegrationTest.dod
2016-05-04 19:13:14,845 [main] DEBUG org.springframework.beans.factory.support.DefaultListableBeanFactory - Returning cached instance of singleton bean &apos;puntuationDataOnDemand&apos;
2016-05-04 19:13:14,845 [main] DEBUG org.springframework.test.context.support.DependencyInjectionTestExecutionListener - Performing dependency injection for test context [[TestContext@1b841e7d testClass = PuntuationIntegrationTest, testInstance = com.roo.esperanza.domain.PuntuationIntegrationTest@5de243bb, testMethod = [null], testException = [null], mergedContextConfiguration = [MergedContextConfiguration@eb695e8 testClass = PuntuationIntegrationTest, locations = &apos;{classpath*:/META-INF/spring/applicationContext*.xml}&apos;, classes = &apos;{}&apos;, contextInitializerClasses = &apos;[]&apos;, activeProfiles = &apos;{}&apos;, contextLoader = &apos;org.springframework.test.context.support.DelegatingSmartContextLoader&apos;, parent = [null]]]].
2016-05-04 19:13:14,845 [main] DEBUG org.springframework.test.context.CacheAwareContextLoaderDelegate - Retrieved ApplicationContext from cache with key [[MergedContextConfiguration@eb695e8 testClass = PuntuationIntegrationTest, locations = &apos;{classpath*:/META-INF/spring/applicationContext*.xml}&apos;, classes = &apos;{}&apos;, contextInitializerClasses = &apos;[]&apos;, activeProfiles = &apos;{}&apos;, contextLoader = &apos;org.springframework.test.context.support.DelegatingSmartContextLoader&apos;, parent = [null]]].
2016-05-04 19:13:14,846 [main] DEBUG org.springframework.beans.factory.annotation.InjectionMetadata - Processing injected method of bean &apos;com.roo.esperanza.domain.PuntuationIntegrationTest&apos;: AutowiredFieldElement for com.roo.esperanza.domain.PuntuationDataOnDemand com.roo.esperanza.domain.PuntuationIntegrationTest.dod
2016-05-04 19:13:14,846 [main] DEBUG org.springframework.beans.factory.support.DefaultListableBeanFactory - Returning cached instance of singleton bean &apos;puntuationDataOnDemand&apos;
2016-05-04 19:13:14,846 [main] DEBUG org.springframework.transaction.annotation.AnnotationTransactionAttributeSource - Adding transactional method &apos;PuntuationIntegrationTest.testCountPuntuations&apos; with attribute: PROPAGATION_REQUIRED,ISOLATION_DEFAULT; &apos;&apos;
2016-05-04 19:13:14,846 [main] DEBUG org.springframework.test.context.transaction.TransactionalTestExecutionListener - Explicit transaction definition [PROPAGATION_REQUIRED,ISOLATION_DEFAULT; &apos;&apos;] found for test context [TestContext@1b841e7d testClass = PuntuationIntegrationTest, testInstance = com.roo.esperanza.domain.PuntuationIntegrationTest@5de243bb, testMethod = testCountPuntuations@PuntuationIntegrationTest, testException = [null], mergedContextConfiguration = [MergedContextConfiguration@eb695e8 testClass = PuntuationIntegrationTest, locations = &apos;{classpath*:/META-INF/spring/applicationContext*.xml}&apos;, classes = &apos;{}&apos;, contextInitializerClasses = &apos;[]&apos;, activeProfiles = &apos;{}&apos;, contextLoader = &apos;org.springframework.test.context.support.DelegatingSmartContextLoader&apos;, parent = [null]]]
2016-05-04 19:13:14,846 [main] DEBUG org.springframework.test.context.CacheAwareContextLoaderDelegate - Retrieved ApplicationContext from cache with key [[MergedContextConfiguration@eb695e8 testClass = PuntuationIntegrationTest, locations = &apos;{classpath*:/META-INF/spring/applicationContext*.xml}&apos;, classes = &apos;{}&apos;, contextInitializerClasses = &apos;[]&apos;, activeProfiles = &apos;{}&apos;, contextLoader = &apos;org.springframework.test.context.support.DelegatingSmartContextLoader&apos;, parent = [null]]].
2016-05-04 19:13:14,846 [main] DEBUG org.springframework.beans.factory.support.DefaultListableBeanFactory - Returning cached instance of singleton bean &apos;transactionManager&apos;
2016-05-04 19:13:14,846 [main] DEBUG org.springframework.orm.jpa.JpaTransactionManager - Creating new transaction with name [testCountPuntuations]: PROPAGATION_REQUIRED,ISOLATION_DEFAULT; &apos;&apos;
2016-05-04 19:13:14,846 [main] DEBUG org.springframework.orm.jpa.JpaTransactionManager - Opened new EntityManager [org.hibernate.jpa.internal.EntityManagerImpl@2c4cf7eb] for JPA transaction
2016-05-04 19:13:14,846 [main] DEBUG org.hibernate.engine.transaction.spi.AbstractTransactionImpl - begin
2016-05-04 19:13:14,846 [main] DEBUG org.hibernate.engine.jdbc.internal.LogicalConnectionImpl - Obtaining JDBC connection
2016-05-04 19:13:14,847 [main] DEBUG org.hibernate.engine.jdbc.internal.LogicalConnectionImpl - Obtained JDBC connection
2016-05-04 19:13:14,847 [main] DEBUG org.hibernate.engine.transaction.internal.jdbc.JdbcTransaction - initial autocommit status: true
2016-05-04 19:13:14,847 [main] DEBUG org.hibernate.engine.transaction.internal.jdbc.JdbcTransaction - disabling autocommit
2016-05-04 19:13:14,847 [main] DEBUG org.springframework.orm.jpa.JpaTransactionManager - Not exposing JPA transaction [org.hibernate.jpa.internal.EntityManagerImpl@2c4cf7eb] as JDBC transaction because JpaDialect [org.springframework.orm.jpa.DefaultJpaDialect@373052b5] does not support JDBC Connection retrieval
2016-05-04 19:13:14,847 [main] DEBUG org.springframework.test.context.transaction.TransactionalTestExecutionListener - No method-level @Rollback override: using default rollback [true] for test context [TestContext@1b841e7d testClass = PuntuationIntegrationTest, testInstance = com.roo.esperanza.domain.PuntuationIntegrationTest@5de243bb, testMethod = testCountPuntuations@PuntuationIntegrationTest, testException = [null], mergedContextConfiguration = [MergedContextConfiguration@eb695e8 testClass = PuntuationIntegrationTest, locations = &apos;{classpath*:/META-INF/spring/applicationContext*.xml}&apos;, classes = &apos;{}&apos;, contextInitializerClasses = &apos;[]&apos;, activeProfiles = &apos;{}&apos;, contextLoader = &apos;org.springframework.test.context.support.DelegatingSmartContextLoader&apos;, parent = [null]]]
2016-05-04 19:13:14,847 [main] INFO  org.springframework.test.context.transaction.TransactionalTestExecutionListener - Began transaction (6): transaction manager [org.springframework.orm.jpa.JpaTransactionManager@7b2bf745]; rollback [true]
2016-05-04 19:13:14,847 [main] DEBUG org.springframework.beans.factory.annotation.InjectionMetadata - Processing injected method of bean &apos;com.roo.esperanza.domain.Puntuation&apos;: PersistenceElement for transient javax.persistence.EntityManager com.roo.esperanza.domain.Puntuation.entityManager
2016-05-04 19:13:14,848 [main] DEBUG org.springframework.beans.factory.support.DefaultListableBeanFactory - Returning cached instance of singleton bean &apos;entityManagerFactory&apos;
2016-05-04 19:13:14,848 [main] DEBUG org.hibernate.SQL - select puntuation0_.id as id1_21_, puntuation0_.comment as comment2_21_, puntuation0_.date as date3_21_, puntuation0_.score_type as score_ty4_21_, puntuation0_.version as version5_21_ from puntuation puntuation0_ limit ?
2016-05-04 19:13:14,849 [main] DEBUG org.hibernate.loader.Loader - Result set row: 0
2016-05-04 19:13:14,849 [main] DEBUG org.hibernate.loader.Loader - Result row: EntityKey[com.roo.esperanza.domain.Puntuation#1]
2016-05-04 19:13:14,849 [main] DEBUG org.springframework.beans.factory.annotation.InjectionMetadata - Processing injected method of bean &apos;com.roo.esperanza.domain.Puntuation&apos;: PersistenceElement for transient javax.persistence.EntityManager com.roo.esperanza.domain.Puntuation.entityManager
2016-05-04 19:13:14,849 [main] DEBUG org.springframework.beans.factory.support.DefaultListableBeanFactory - Returning cached instance of singleton bean &apos;entityManagerFactory&apos;
2016-05-04 19:13:14,849 [main] DEBUG org.hibernate.loader.Loader - Result set row: 1
2016-05-04 19:13:14,849 [main] DEBUG org.hibernate.loader.Loader - Result row: EntityKey[com.roo.esperanza.domain.Puntuation#2]
2016-05-04 19:13:14,849 [main] DEBUG org.springframework.beans.factory.annotation.InjectionMetadata - Processing injected method of bean &apos;com.roo.esperanza.domain.Puntuation&apos;: PersistenceElement for transient javax.persistence.EntityManager com.roo.esperanza.domain.Puntuation.entityManager
2016-05-04 19:13:14,849 [main] DEBUG org.springframework.beans.factory.support.DefaultListableBeanFactory - Returning cached instance of singleton bean &apos;entityManagerFactory&apos;
2016-05-04 19:13:14,849 [main] DEBUG org.hibernate.engine.internal.TwoPhaseLoad - Resolving associations for [com.roo.esperanza.domain.Puntuation#1]
2016-05-04 19:13:14,849 [main] DEBUG org.hibernate.engine.internal.TwoPhaseLoad - Done materializing entity [com.roo.esperanza.domain.Puntuation#1]
2016-05-04 19:13:14,849 [main] DEBUG org.hibernate.engine.internal.TwoPhaseLoad - Resolving associations for [com.roo.esperanza.domain.Puntuation#2]
2016-05-04 19:13:14,850 [main] DEBUG org.hibernate.engine.internal.TwoPhaseLoad - Done materializing entity [com.roo.esperanza.domain.Puntuation#2]
2016-05-04 19:13:14,850 [main] DEBUG org.springframework.beans.factory.annotation.InjectionMetadata - Processing injected method of bean &apos;com.roo.esperanza.domain.Puntuation&apos;: PersistenceElement for transient javax.persistence.EntityManager com.roo.esperanza.domain.Puntuation.entityManager
2016-05-04 19:13:14,850 [main] DEBUG org.springframework.beans.factory.support.DefaultListableBeanFactory - Returning cached instance of singleton bean &apos;entityManagerFactory&apos;
2016-05-04 19:13:14,850 [main] DEBUG org.springframework.beans.factory.annotation.InjectionMetadata - Processing injected method of bean &apos;com.roo.esperanza.domain.Puntuation&apos;: PersistenceElement for transient javax.persistence.EntityManager com.roo.esperanza.domain.Puntuation.entityManager
2016-05-04 19:13:14,850 [main] DEBUG org.springframework.beans.factory.support.DefaultListableBeanFactory - Returning cached instance of singleton bean &apos;entityManagerFactory&apos;
2016-05-04 19:13:14,851 [main] DEBUG org.hibernate.hql.internal.ast.QueryTranslatorImpl - parse() - HQL: SELECT COUNT(a) FROM com.roo.esperanza.domain.Participant o LEFT JOIN o.arrayScore as a WHERE o = :participant
2016-05-04 19:13:14,854 [main] DEBUG org.hibernate.hql.internal.ast.QueryTranslatorImpl - --- HQL AST ---
 \-[QUERY] Node: &apos;query&apos;
    +-[SELECT_FROM] Node: &apos;SELECT_FROM&apos;
    |  +-[FROM] Node: &apos;FROM&apos;
    |  |  +-[RANGE] Node: &apos;RANGE&apos;
    |  |  |  +-[DOT] Node: &apos;.&apos;
    |  |  |  |  +-[DOT] Node: &apos;.&apos;
    |  |  |  |  |  +-[DOT] Node: &apos;.&apos;
    |  |  |  |  |  |  +-[DOT] Node: &apos;.&apos;
    |  |  |  |  |  |  |  +-[IDENT] Node: &apos;com&apos;
    |  |  |  |  |  |  |  \-[IDENT] Node: &apos;roo&apos;
    |  |  |  |  |  |  \-[IDENT] Node: &apos;esperanza&apos;
    |  |  |  |  |  \-[IDENT] Node: &apos;domain&apos;
    |  |  |  |  \-[IDENT] Node: &apos;Participant&apos;
    |  |  |  \-[ALIAS] Node: &apos;o&apos;
    |  |  \-[JOIN] Node: &apos;JOIN&apos;
    |  |     +-[LEFT] Node: &apos;LEFT&apos;
    |  |     +-[DOT] Node: &apos;.&apos;
    |  |     |  +-[IDENT] Node: &apos;o&apos;
    |  |     |  \-[IDENT] Node: &apos;arrayScore&apos;
    |  |     \-[ALIAS] Node: &apos;a&apos;
    |  \-[SELECT] Node: &apos;SELECT&apos;
    |     \-[COUNT] Node: &apos;COUNT&apos;
    |        \-[IDENT] Node: &apos;a&apos;
    \-[WHERE] Node: &apos;WHERE&apos;
       \-[EQ] Node: &apos;=&apos;
          +-[IDENT] Node: &apos;o&apos;
          \-[COLON] Node: &apos;:&apos;
             \-[IDENT] Node: &apos;participant&apos;

2016-05-04 19:13:14,854 [main] DEBUG org.hibernate.hql.internal.ast.ErrorCounter - throwQueryException() : no errors
2016-05-04 19:13:14,854 [main] DEBUG org.hibernate.hql.internal.antlr.HqlSqlBaseWalker - select &lt;&lt; begin [level=1, statement=select]
2016-05-04 19:13:14,854 [main] DEBUG org.hibernate.hql.internal.ast.tree.FromElement - FromClause{level=1} : com.roo.esperanza.domain.Participant (o) -&gt; participan0_
2016-05-04 19:13:14,854 [main] DEBUG org.hibernate.hql.internal.ast.tree.FromReferenceNode - Resolved : o -&gt; participan0_.id
2016-05-04 19:13:14,856 [main] DEBUG org.hibernate.hql.internal.ast.tree.DotNode - getDataType() : arrayScore -&gt; org.hibernate.type.SetType(com.roo.esperanza.domain.Participant.arrayScore)
2016-05-04 19:13:14,857 [main] DEBUG org.hibernate.hql.internal.ast.tree.FromElementFactory - createManyToMany() : path = o.arrayScore role = com.roo.esperanza.domain.Participant.arrayScore associatedEntityName = com.roo.esperanza.domain.Puntuation
2016-05-04 19:13:14,859 [main] DEBUG org.hibernate.hql.internal.ast.tree.FromElement - FromClause{level=1} : com.roo.esperanza.domain.Puntuation (a) -&gt; puntuation2_
2016-05-04 19:13:14,859 [main] DEBUG org.hibernate.hql.internal.ast.tree.FromClause - addJoinByPathMap() : o.arrayScore -&gt; FromElement{explicit,not a collection join,not a fetch join,fetch non-lazy properties,classAlias=a,role=null,tableName=puntuation,tableAlias=puntuation2_,origin=participant participan0_,columns={participan0_.id ,className=com.roo.esperanza.domain.Puntuation}}
2016-05-04 19:13:14,859 [main] DEBUG org.hibernate.hql.internal.ast.tree.DotNode - dereferenceCollection() : Created new FROM element for o.arrayScore : participant_array_score puntuation2_
2016-05-04 19:13:14,859 [main] DEBUG org.hibernate.hql.internal.ast.tree.FromReferenceNode - Resolved : o.arrayScore -&gt; .
2016-05-04 19:13:14,859 [main] DEBUG org.hibernate.hql.internal.ast.HqlSqlWalker - createFromJoinElement() : -- join tree --
 \-[JOIN_FRAGMENT] FromElement: &apos;participant_array_score puntuation2_&apos; FromElement{explicit,not a collection join,not a fetch join,fetch non-lazy properties,classAlias=a,role=com.roo.esperanza.domain.Participant.arrayScore,tableName=puntuation,tableAlias=puntuation2_,origin=participant participan0_,columns={participan0_.id ,className=com.roo.esperanza.domain.Puntuation}}

2016-05-04 19:13:14,860 [main] DEBUG org.hibernate.hql.internal.ast.tree.FromReferenceNode - Resolved : a -&gt; puntuation2_.id
2016-05-04 19:13:14,861 [main] DEBUG org.hibernate.hql.internal.ast.tree.FromReferenceNode - Resolved : o -&gt; participan0_.id
2016-05-04 19:13:14,863 [main] DEBUG org.hibernate.hql.internal.antlr.HqlSqlBaseWalker - select : finishing up [level=1, statement=select]
2016-05-04 19:13:14,863 [main] DEBUG org.hibernate.hql.internal.ast.HqlSqlWalker - processQuery() :  ( SELECT ( {select clause} ( COUNT puntuation2_.id ) ) ( FromClause{level=1} ( participant participan0_ participant_array_score puntuation2_ ) ) ( WHERE ( = participan0_.id ? ) ) )
2016-05-04 19:13:14,863 [main] DEBUG org.hibernate.hql.internal.ast.util.JoinProcessor - Using FROM fragment [participant participan0_]
2016-05-04 19:13:14,863 [main] DEBUG org.hibernate.hql.internal.ast.util.JoinProcessor - Using FROM fragment [left outer join participant_array_score arrayscore1_ on participan0_.id=arrayscore1_.participant left outer join puntuation puntuation2_ on arrayscore1_.array_score=puntuation2_.id]
2016-05-04 19:13:14,863 [main] DEBUG org.hibernate.hql.internal.antlr.HqlSqlBaseWalker - select &gt;&gt; end [level=1, statement=select]
2016-05-04 19:13:14,863 [main] DEBUG org.hibernate.hql.internal.ast.QueryTranslatorImpl - --- SQL AST ---
 \-[SELECT] QueryNode: &apos;SELECT&apos;  querySpaces (puntuation,participant,participant_array_score)
    +-[SELECT_CLAUSE] SelectClause: &apos;{select clause}&apos;
    |  +-[COUNT] CountNode: &apos;COUNT&apos;
    |  |  \-[ALIAS_REF] IdentNode: &apos;puntuation2_.id&apos; {alias=a, className=com.roo.esperanza.domain.Puntuation, tableAlias=puntuation2_}
    |  \-[SELECT_COLUMNS] SqlNode: &apos; as col_0_0_&apos;
    +-[FROM] FromClause: &apos;FROM&apos; FromClause{level=1, fromElementCounter=2, fromElements=2, fromElementByClassAlias=[a, o], fromElementByTableAlias=[puntuation2_, participan0_], fromElementsByPath=[o.arrayScore], collectionJoinFromElementsByPath=[], impliedElements=[]}
    |  \-[FROM_FRAGMENT] FromElement: &apos;participant participan0_&apos; FromElement{explicit,not a collection join,not a fetch join,fetch non-lazy properties,classAlias=o,role=null,tableName=participant,tableAlias=participan0_,origin=null,columns={,className=com.roo.esperanza.domain.Participant}}
    |     \-[JOIN_FRAGMENT] FromElement: &apos;left outer join participant_array_score arrayscore1_ on participan0_.id=arrayscore1_.participant left outer join puntuation puntuation2_ on arrayscore1_.array_score=puntuation2_.id&apos; FromElement{explicit,not a collection join,not a fetch join,fetch non-lazy properties,classAlias=a,role=com.roo.esperanza.domain.Participant.arrayScore,tableName=puntuation,tableAlias=puntuation2_,origin=participant participan0_,columns={participan0_.id ,className=com.roo.esperanza.domain.Puntuation}}
    \-[WHERE] SqlNode: &apos;WHERE&apos;
       \-[EQ] BinaryLogicOperatorNode: &apos;=&apos;
          +-[ALIAS_REF] IdentNode: &apos;participan0_.id&apos; {alias=o, className=com.roo.esperanza.domain.Participant, tableAlias=participan0_}
          \-[NAMED_PARAM] ParameterNode: &apos;?&apos; {name=participant, expectedType=org.hibernate.type.ManyToOneType(com.roo.esperanza.domain.Participant)}

2016-05-04 19:13:14,863 [main] DEBUG org.hibernate.hql.internal.ast.ErrorCounter - throwQueryException() : no errors
2016-05-04 19:13:14,864 [main] DEBUG org.hibernate.hql.internal.ast.QueryTranslatorImpl - HQL: SELECT COUNT(a) FROM com.roo.esperanza.domain.Participant o LEFT JOIN o.arrayScore as a WHERE o = :participant
2016-05-04 19:13:14,864 [main] DEBUG org.hibernate.hql.internal.ast.QueryTranslatorImpl - SQL: select count(puntuation2_.id) as col_0_0_ from participant participan0_ left outer join participant_array_score arrayscore1_ on participan0_.id=arrayscore1_.participant left outer join puntuation puntuation2_ on arrayscore1_.array_score=puntuation2_.id where participan0_.id=?
2016-05-04 19:13:14,864 [main] DEBUG org.hibernate.hql.internal.ast.ErrorCounter - throwQueryException() : no errors
2016-05-04 19:13:14,867 [main] DEBUG org.hibernate.event.internal.AbstractFlushingEventListener - Processing flush-time cascades
2016-05-04 19:13:14,867 [main] DEBUG org.hibernate.event.internal.AbstractFlushingEventListener - Dirty checking collections
2016-05-04 19:13:14,867 [main] DEBUG org.hibernate.event.internal.AbstractFlushingEventListener - Flushed: 0 insertions, 0 updates, 0 deletions to 2 objects
2016-05-04 19:13:14,867 [main] DEBUG org.hibernate.event.internal.AbstractFlushingEventListener - Flushed: 0 (re)creations, 0 updates, 0 removals to 0 collections
2016-05-04 19:13:14,867 [main] DEBUG org.hibernate.internal.util.EntityPrinter - Listing entities:
2016-05-04 19:13:14,867 [main] DEBUG org.hibernate.internal.util.EntityPrinter - com.roo.esperanza.domain.Puntuation{date=2016-04-21 20:55:12.0, scoreType=Excellent, comment=excelente usuario muchas gracias!, id=1, version=0}
2016-05-04 19:13:14,867 [main] DEBUG org.hibernate.internal.util.EntityPrinter - com.roo.esperanza.domain.Puntuation{date=2016-04-29 10:02:10.0, scoreType=Good, comment=muy buen usuario!, id=2, version=null}
2016-05-04 19:13:14,867 [main] DEBUG org.hibernate.SQL - select count(puntuation2_.id) as col_0_0_ from participant participan0_ left outer join participant_array_score arrayscore1_ on participan0_.id=arrayscore1_.participant left outer join puntuation puntuation2_ on arrayscore1_.array_score=puntuation2_.id where participan0_.id=?
2016-05-04 19:13:14,868 [main] DEBUG org.hibernate.loader.Loader - Result set row: 0
2016-05-04 19:13:14,868 [main] DEBUG org.hibernate.loader.Loader - Result row: 
2016-05-04 19:13:14,868 [main] DEBUG org.springframework.test.context.transaction.TransactionalTestExecutionListener - No method-level @Rollback override: using default rollback [true] for test context [TestContext@1b841e7d testClass = PuntuationIntegrationTest, testInstance = com.roo.esperanza.domain.PuntuationIntegrationTest@5de243bb, testMethod = testCountPuntuations@PuntuationIntegrationTest, testException = java.lang.AssertionError: Counter for &apos;Puntuation&apos; incorrectly reported there were no entries, mergedContextConfiguration = [MergedContextConfiguration@eb695e8 testClass = PuntuationIntegrationTest, locations = &apos;{classpath*:/META-INF/spring/applicationContext*.xml}&apos;, classes = &apos;{}&apos;, contextInitializerClasses = &apos;[]&apos;, activeProfiles = &apos;{}&apos;, contextLoader = &apos;org.springframework.test.context.support.DelegatingSmartContextLoader&apos;, parent = [null]]]
2016-05-04 19:13:14,868 [main] DEBUG org.springframework.orm.jpa.JpaTransactionManager - Initiating transaction rollback
2016-05-04 19:13:14,868 [main] DEBUG org.springframework.orm.jpa.JpaTransactionManager - Rolling back JPA transaction on EntityManager [org.hibernate.jpa.internal.EntityManagerImpl@2c4cf7eb]
2016-05-04 19:13:14,868 [main] DEBUG org.hibernate.engine.transaction.spi.AbstractTransactionImpl - rolling back
2016-05-04 19:13:14,869 [main] DEBUG org.hibernate.engine.transaction.internal.jdbc.JdbcTransaction - rolled JDBC Connection
2016-05-04 19:13:14,869 [main] DEBUG org.hibernate.engine.transaction.internal.jdbc.JdbcTransaction - re-enabling autocommit
2016-05-04 19:13:14,869 [main] DEBUG org.springframework.orm.jpa.JpaTransactionManager - Closing JPA EntityManager [org.hibernate.jpa.internal.EntityManagerImpl@2c4cf7eb] after transaction
2016-05-04 19:13:14,869 [main] DEBUG org.springframework.orm.jpa.EntityManagerFactoryUtils - Closing JPA EntityManager
2016-05-04 19:13:14,869 [main] DEBUG org.hibernate.engine.jdbc.internal.LogicalConnectionImpl - Releasing JDBC connection
2016-05-04 19:13:14,869 [main] DEBUG org.hibernate.engine.jdbc.internal.LogicalConnectionImpl - Released JDBC connection
2016-05-04 19:13:14,869 [main] INFO  org.springframework.test.context.transaction.TransactionalTestExecutionListener - Rolled back transaction after test execution for test context [TestContext@1b841e7d testClass = PuntuationIntegrationTest, testInstance = com.roo.esperanza.domain.PuntuationIntegrationTest@5de243bb, testMethod = testCountPuntuations@PuntuationIntegrationTest, testException = java.lang.AssertionError: Counter for &apos;Puntuation&apos; incorrectly reported there were no entries, mergedContextConfiguration = [MergedContextConfiguration@eb695e8 testClass = PuntuationIntegrationTest, locations = &apos;{classpath*:/META-INF/spring/applicationContext*.xml}&apos;, classes = &apos;{}&apos;, contextInitializerClasses = &apos;[]&apos;, activeProfiles = &apos;{}&apos;, contextLoader = &apos;org.springframework.test.context.support.DelegatingSmartContextLoader&apos;, parent = [null]]]
2016-05-04 19:13:14,869 [main] DEBUG org.springframework.test.context.support.DirtiesContextTestExecutionListener - After test method: context [[TestContext@1b841e7d testClass = PuntuationIntegrationTest, testInstance = com.roo.esperanza.domain.PuntuationIntegrationTest@5de243bb, testMethod = testCountPuntuations@PuntuationIntegrationTest, testException = java.lang.AssertionError: Counter for &apos;Puntuation&apos; incorrectly reported there were no entries, mergedContextConfiguration = [MergedContextConfiguration@eb695e8 testClass = PuntuationIntegrationTest, locations = &apos;{classpath*:/META-INF/spring/applicationContext*.xml}&apos;, classes = &apos;{}&apos;, contextInitializerClasses = &apos;[]&apos;, activeProfiles = &apos;{}&apos;, contextLoader = &apos;org.springframework.test.context.support.DelegatingSmartContextLoader&apos;, parent = [null]]]], class dirties context [false], class mode [null], method dirties context [false].
</system-out>
  </testcase>
  <testcase classname="com.roo.esperanza.domain.PuntuationIntegrationTest" name="testFindPuntuationEntries" time="0.009">
    <failure message="Find entries method for &apos;Puntuation&apos; returned an incorrect number of entries expected:&lt;0&gt; but was:&lt;2&gt;" type="java.lang.AssertionError">java.lang.AssertionError: Find entries method for &apos;Puntuation&apos; returned an incorrect number of entries expected:&lt;0&gt; but was:&lt;2&gt;
	at org.junit.Assert.fail(Assert.java:88)
	at org.junit.Assert.failNotEquals(Assert.java:743)
	at org.junit.Assert.assertEquals(Assert.java:118)
	at org.junit.Assert.assertEquals(Assert.java:555)
	at com.roo.esperanza.domain.PuntuationIntegrationTest_Roo_IntegrationTest.ajc$interMethod$com_roo_esperanza_domain_PuntuationIntegrationTest_Roo_IntegrationTest$com_roo_esperanza_domain_PuntuationIntegrationTest$testFindPuntuationEntries(PuntuationIntegrationTest_Roo_IntegrationTest.aj:69)
	at com.roo.esperanza.domain.PuntuationIntegrationTest.testFindPuntuationEntries(PuntuationIntegrationTest.java:1)
	at sun.reflect.NativeMethodAccessorImpl.invoke0(Native Method)
	at sun.reflect.NativeMethodAccessorImpl.invoke(NativeMethodAccessorImpl.java:62)
	at sun.reflect.DelegatingMethodAccessorImpl.invoke(DelegatingMethodAccessorImpl.java:43)
	at java.lang.reflect.Method.invoke(Method.java:497)
	at org.junit.runners.model.FrameworkMethod$1.runReflectiveCall(FrameworkMethod.java:47)
	at org.junit.internal.runners.model.ReflectiveCallable.run(ReflectiveCallable.java:12)
	at org.junit.runners.model.FrameworkMethod.invokeExplosively(FrameworkMethod.java:44)
	at org.junit.internal.runners.statements.InvokeMethod.evaluate(InvokeMethod.java:17)
	at org.springframework.test.context.junit4.statements.RunBeforeTestMethodCallbacks.evaluate(RunBeforeTestMethodCallbacks.java:74)
	at org.springframework.test.context.junit4.statements.RunAfterTestMethodCallbacks.evaluate(RunAfterTestMethodCallbacks.java:83)
	at org.springframework.test.context.junit4.statements.SpringRepeat.evaluate(SpringRepeat.java:72)
	at org.springframework.test.context.junit4.SpringJUnit4ClassRunner.runChild(SpringJUnit4ClassRunner.java:231)
	at org.springframework.test.context.junit4.SpringJUnit4ClassRunner.runChild(SpringJUnit4ClassRunner.java:88)
	at org.junit.runners.ParentRunner$3.run(ParentRunner.java:238)
	at org.junit.runners.ParentRunner$1.schedule(ParentRunner.java:63)
	at org.junit.runners.ParentRunner.runChildren(ParentRunner.java:236)
	at org.junit.runners.ParentRunner.access$000(ParentRunner.java:53)
	at org.junit.runners.ParentRunner$2.evaluate(ParentRunner.java:229)
	at org.springframework.test.context.junit4.statements.RunBeforeTestClassCallbacks.evaluate(RunBeforeTestClassCallbacks.java:61)
	at org.springframework.test.context.junit4.statements.RunAfterTestClassCallbacks.evaluate(RunAfterTestClassCallbacks.java:71)
	at org.junit.runners.ParentRunner.run(ParentRunner.java:309)
	at org.springframework.test.context.junit4.SpringJUnit4ClassRunner.run(SpringJUnit4ClassRunner.java:174)
	at org.apache.maven.surefire.junit4.JUnit4Provider.execute(JUnit4Provider.java:236)
	at org.apache.maven.surefire.junit4.JUnit4Provider.executeTestSet(JUnit4Provider.java:134)
	at org.apache.maven.surefire.junit4.JUnit4Provider.invoke(JUnit4Provider.java:113)
	at sun.reflect.NativeMethodAccessorImpl.invoke0(Native Method)
	at sun.reflect.NativeMethodAccessorImpl.invoke(NativeMethodAccessorImpl.java:62)
	at sun.reflect.DelegatingMethodAccessorImpl.invoke(DelegatingMethodAccessorImpl.java:43)
	at java.lang.reflect.Method.invoke(Method.java:497)
	at org.apache.maven.surefire.util.ReflectionUtils.invokeMethodWithArray(ReflectionUtils.java:189)
	at org.apache.maven.surefire.booter.ProviderFactory$ProviderProxy.invoke(ProviderFactory.java:165)
	at org.apache.maven.surefire.booter.ProviderFactory.invokeProvider(ProviderFactory.java:85)
	at org.apache.maven.surefire.booter.ForkedBooter.runSuitesInProcess(ForkedBooter.java:103)
	at org.apache.maven.surefire.booter.ForkedBooter.main(ForkedBooter.java:74)
</failure>
    <system-out>2016-05-04 19:13:14,870 [main] DEBUG org.springframework.test.annotation.ProfileValueUtils - Retrieved @ProfileValueSourceConfiguration [null] for test class [com.roo.esperanza.domain.PuntuationIntegrationTest]
2016-05-04 19:13:14,870 [main] DEBUG org.springframework.test.annotation.ProfileValueUtils - Retrieved ProfileValueSource type [class org.springframework.test.annotation.SystemProfileValueSource] for class [com.roo.esperanza.domain.PuntuationIntegrationTest]
2016-05-04 19:13:14,870 [main] DEBUG org.springframework.beans.factory.annotation.InjectionMetadata - Processing injected method of bean &apos;com.roo.esperanza.domain.PuntuationIntegrationTest&apos;: AutowiredFieldElement for com.roo.esperanza.domain.PuntuationDataOnDemand com.roo.esperanza.domain.PuntuationIntegrationTest.dod
2016-05-04 19:13:14,870 [main] DEBUG org.springframework.beans.factory.support.DefaultListableBeanFactory - Returning cached instance of singleton bean &apos;puntuationDataOnDemand&apos;
2016-05-04 19:13:14,871 [main] DEBUG org.springframework.test.context.support.DependencyInjectionTestExecutionListener - Performing dependency injection for test context [[TestContext@1b841e7d testClass = PuntuationIntegrationTest, testInstance = com.roo.esperanza.domain.PuntuationIntegrationTest@134955bb, testMethod = [null], testException = [null], mergedContextConfiguration = [MergedContextConfiguration@eb695e8 testClass = PuntuationIntegrationTest, locations = &apos;{classpath*:/META-INF/spring/applicationContext*.xml}&apos;, classes = &apos;{}&apos;, contextInitializerClasses = &apos;[]&apos;, activeProfiles = &apos;{}&apos;, contextLoader = &apos;org.springframework.test.context.support.DelegatingSmartContextLoader&apos;, parent = [null]]]].
2016-05-04 19:13:14,871 [main] DEBUG org.springframework.test.context.CacheAwareContextLoaderDelegate - Retrieved ApplicationContext from cache with key [[MergedContextConfiguration@eb695e8 testClass = PuntuationIntegrationTest, locations = &apos;{classpath*:/META-INF/spring/applicationContext*.xml}&apos;, classes = &apos;{}&apos;, contextInitializerClasses = &apos;[]&apos;, activeProfiles = &apos;{}&apos;, contextLoader = &apos;org.springframework.test.context.support.DelegatingSmartContextLoader&apos;, parent = [null]]].
2016-05-04 19:13:14,871 [main] DEBUG org.springframework.beans.factory.annotation.InjectionMetadata - Processing injected method of bean &apos;com.roo.esperanza.domain.PuntuationIntegrationTest&apos;: AutowiredFieldElement for com.roo.esperanza.domain.PuntuationDataOnDemand com.roo.esperanza.domain.PuntuationIntegrationTest.dod
2016-05-04 19:13:14,871 [main] DEBUG org.springframework.beans.factory.support.DefaultListableBeanFactory - Returning cached instance of singleton bean &apos;puntuationDataOnDemand&apos;
2016-05-04 19:13:14,871 [main] DEBUG org.springframework.transaction.annotation.AnnotationTransactionAttributeSource - Adding transactional method &apos;PuntuationIntegrationTest.testFindPuntuationEntries&apos; with attribute: PROPAGATION_REQUIRED,ISOLATION_DEFAULT; &apos;&apos;
2016-05-04 19:13:14,871 [main] DEBUG org.springframework.test.context.transaction.TransactionalTestExecutionListener - Explicit transaction definition [PROPAGATION_REQUIRED,ISOLATION_DEFAULT; &apos;&apos;] found for test context [TestContext@1b841e7d testClass = PuntuationIntegrationTest, testInstance = com.roo.esperanza.domain.PuntuationIntegrationTest@134955bb, testMethod = testFindPuntuationEntries@PuntuationIntegrationTest, testException = [null], mergedContextConfiguration = [MergedContextConfiguration@eb695e8 testClass = PuntuationIntegrationTest, locations = &apos;{classpath*:/META-INF/spring/applicationContext*.xml}&apos;, classes = &apos;{}&apos;, contextInitializerClasses = &apos;[]&apos;, activeProfiles = &apos;{}&apos;, contextLoader = &apos;org.springframework.test.context.support.DelegatingSmartContextLoader&apos;, parent = [null]]]
2016-05-04 19:13:14,871 [main] DEBUG org.springframework.test.context.CacheAwareContextLoaderDelegate - Retrieved ApplicationContext from cache with key [[MergedContextConfiguration@eb695e8 testClass = PuntuationIntegrationTest, locations = &apos;{classpath*:/META-INF/spring/applicationContext*.xml}&apos;, classes = &apos;{}&apos;, contextInitializerClasses = &apos;[]&apos;, activeProfiles = &apos;{}&apos;, contextLoader = &apos;org.springframework.test.context.support.DelegatingSmartContextLoader&apos;, parent = [null]]].
2016-05-04 19:13:14,871 [main] DEBUG org.springframework.beans.factory.support.DefaultListableBeanFactory - Returning cached instance of singleton bean &apos;transactionManager&apos;
2016-05-04 19:13:14,871 [main] DEBUG org.springframework.orm.jpa.JpaTransactionManager - Creating new transaction with name [testFindPuntuationEntries]: PROPAGATION_REQUIRED,ISOLATION_DEFAULT; &apos;&apos;
2016-05-04 19:13:14,871 [main] DEBUG org.springframework.orm.jpa.JpaTransactionManager - Opened new EntityManager [org.hibernate.jpa.internal.EntityManagerImpl@45b08b17] for JPA transaction
2016-05-04 19:13:14,871 [main] DEBUG org.hibernate.engine.transaction.spi.AbstractTransactionImpl - begin
2016-05-04 19:13:14,871 [main] DEBUG org.hibernate.engine.jdbc.internal.LogicalConnectionImpl - Obtaining JDBC connection
2016-05-04 19:13:14,872 [main] DEBUG org.hibernate.engine.jdbc.internal.LogicalConnectionImpl - Obtained JDBC connection
2016-05-04 19:13:14,872 [main] DEBUG org.hibernate.engine.transaction.internal.jdbc.JdbcTransaction - initial autocommit status: true
2016-05-04 19:13:14,872 [main] DEBUG org.hibernate.engine.transaction.internal.jdbc.JdbcTransaction - disabling autocommit
2016-05-04 19:13:14,872 [main] DEBUG org.springframework.orm.jpa.JpaTransactionManager - Not exposing JPA transaction [org.hibernate.jpa.internal.EntityManagerImpl@45b08b17] as JDBC transaction because JpaDialect [org.springframework.orm.jpa.DefaultJpaDialect@373052b5] does not support JDBC Connection retrieval
2016-05-04 19:13:14,872 [main] DEBUG org.springframework.test.context.transaction.TransactionalTestExecutionListener - No method-level @Rollback override: using default rollback [true] for test context [TestContext@1b841e7d testClass = PuntuationIntegrationTest, testInstance = com.roo.esperanza.domain.PuntuationIntegrationTest@134955bb, testMethod = testFindPuntuationEntries@PuntuationIntegrationTest, testException = [null], mergedContextConfiguration = [MergedContextConfiguration@eb695e8 testClass = PuntuationIntegrationTest, locations = &apos;{classpath*:/META-INF/spring/applicationContext*.xml}&apos;, classes = &apos;{}&apos;, contextInitializerClasses = &apos;[]&apos;, activeProfiles = &apos;{}&apos;, contextLoader = &apos;org.springframework.test.context.support.DelegatingSmartContextLoader&apos;, parent = [null]]]
2016-05-04 19:13:14,872 [main] INFO  org.springframework.test.context.transaction.TransactionalTestExecutionListener - Began transaction (7): transaction manager [org.springframework.orm.jpa.JpaTransactionManager@7b2bf745]; rollback [true]
2016-05-04 19:13:14,872 [main] DEBUG org.springframework.beans.factory.annotation.InjectionMetadata - Processing injected method of bean &apos;com.roo.esperanza.domain.Puntuation&apos;: PersistenceElement for transient javax.persistence.EntityManager com.roo.esperanza.domain.Puntuation.entityManager
2016-05-04 19:13:14,872 [main] DEBUG org.springframework.beans.factory.support.DefaultListableBeanFactory - Returning cached instance of singleton bean &apos;entityManagerFactory&apos;
2016-05-04 19:13:14,872 [main] DEBUG org.hibernate.SQL - select puntuation0_.id as id1_21_, puntuation0_.comment as comment2_21_, puntuation0_.date as date3_21_, puntuation0_.score_type as score_ty4_21_, puntuation0_.version as version5_21_ from puntuation puntuation0_ limit ?
2016-05-04 19:13:14,873 [main] DEBUG org.hibernate.loader.Loader - Result set row: 0
2016-05-04 19:13:14,873 [main] DEBUG org.hibernate.loader.Loader - Result row: EntityKey[com.roo.esperanza.domain.Puntuation#1]
2016-05-04 19:13:14,873 [main] DEBUG org.springframework.beans.factory.annotation.InjectionMetadata - Processing injected method of bean &apos;com.roo.esperanza.domain.Puntuation&apos;: PersistenceElement for transient javax.persistence.EntityManager com.roo.esperanza.domain.Puntuation.entityManager
2016-05-04 19:13:14,873 [main] DEBUG org.springframework.beans.factory.support.DefaultListableBeanFactory - Returning cached instance of singleton bean &apos;entityManagerFactory&apos;
2016-05-04 19:13:14,873 [main] DEBUG org.hibernate.loader.Loader - Result set row: 1
2016-05-04 19:13:14,873 [main] DEBUG org.hibernate.loader.Loader - Result row: EntityKey[com.roo.esperanza.domain.Puntuation#2]
2016-05-04 19:13:14,873 [main] DEBUG org.springframework.beans.factory.annotation.InjectionMetadata - Processing injected method of bean &apos;com.roo.esperanza.domain.Puntuation&apos;: PersistenceElement for transient javax.persistence.EntityManager com.roo.esperanza.domain.Puntuation.entityManager
2016-05-04 19:13:14,873 [main] DEBUG org.springframework.beans.factory.support.DefaultListableBeanFactory - Returning cached instance of singleton bean &apos;entityManagerFactory&apos;
2016-05-04 19:13:14,873 [main] DEBUG org.hibernate.engine.internal.TwoPhaseLoad - Resolving associations for [com.roo.esperanza.domain.Puntuation#1]
2016-05-04 19:13:14,873 [main] DEBUG org.hibernate.engine.internal.TwoPhaseLoad - Done materializing entity [com.roo.esperanza.domain.Puntuation#1]
2016-05-04 19:13:14,873 [main] DEBUG org.hibernate.engine.internal.TwoPhaseLoad - Resolving associations for [com.roo.esperanza.domain.Puntuation#2]
2016-05-04 19:13:14,874 [main] DEBUG org.hibernate.engine.internal.TwoPhaseLoad - Done materializing entity [com.roo.esperanza.domain.Puntuation#2]
2016-05-04 19:13:14,874 [main] DEBUG org.springframework.beans.factory.annotation.InjectionMetadata - Processing injected method of bean &apos;com.roo.esperanza.domain.Puntuation&apos;: PersistenceElement for transient javax.persistence.EntityManager com.roo.esperanza.domain.Puntuation.entityManager
2016-05-04 19:13:14,874 [main] DEBUG org.springframework.beans.factory.support.DefaultListableBeanFactory - Returning cached instance of singleton bean &apos;entityManagerFactory&apos;
2016-05-04 19:13:14,874 [main] DEBUG org.springframework.beans.factory.annotation.InjectionMetadata - Processing injected method of bean &apos;com.roo.esperanza.domain.Puntuation&apos;: PersistenceElement for transient javax.persistence.EntityManager com.roo.esperanza.domain.Puntuation.entityManager
2016-05-04 19:13:14,874 [main] DEBUG org.springframework.beans.factory.support.DefaultListableBeanFactory - Returning cached instance of singleton bean &apos;entityManagerFactory&apos;
2016-05-04 19:13:14,874 [main] DEBUG org.hibernate.event.internal.AbstractFlushingEventListener - Processing flush-time cascades
2016-05-04 19:13:14,874 [main] DEBUG org.hibernate.event.internal.AbstractFlushingEventListener - Dirty checking collections
2016-05-04 19:13:14,874 [main] DEBUG org.hibernate.event.internal.AbstractFlushingEventListener - Flushed: 0 insertions, 0 updates, 0 deletions to 2 objects
2016-05-04 19:13:14,874 [main] DEBUG org.hibernate.event.internal.AbstractFlushingEventListener - Flushed: 0 (re)creations, 0 updates, 0 removals to 0 collections
2016-05-04 19:13:14,874 [main] DEBUG org.hibernate.internal.util.EntityPrinter - Listing entities:
2016-05-04 19:13:14,875 [main] DEBUG org.hibernate.internal.util.EntityPrinter - com.roo.esperanza.domain.Puntuation{date=2016-04-21 20:55:12.0, scoreType=Excellent, comment=excelente usuario muchas gracias!, id=1, version=0}
2016-05-04 19:13:14,875 [main] DEBUG org.hibernate.internal.util.EntityPrinter - com.roo.esperanza.domain.Puntuation{date=2016-04-29 10:02:10.0, scoreType=Good, comment=muy buen usuario!, id=2, version=null}
2016-05-04 19:13:14,875 [main] DEBUG org.hibernate.SQL - select count(puntuation2_.id) as col_0_0_ from participant participan0_ left outer join participant_array_score arrayscore1_ on participan0_.id=arrayscore1_.participant left outer join puntuation puntuation2_ on arrayscore1_.array_score=puntuation2_.id where participan0_.id=?
2016-05-04 19:13:14,875 [main] DEBUG org.hibernate.loader.Loader - Result set row: 0
2016-05-04 19:13:14,875 [main] DEBUG org.hibernate.loader.Loader - Result row: 
2016-05-04 19:13:14,876 [main] DEBUG org.springframework.beans.factory.annotation.InjectionMetadata - Processing injected method of bean &apos;com.roo.esperanza.domain.Puntuation&apos;: PersistenceElement for transient javax.persistence.EntityManager com.roo.esperanza.domain.Puntuation.entityManager
2016-05-04 19:13:14,876 [main] DEBUG org.springframework.beans.factory.support.DefaultListableBeanFactory - Returning cached instance of singleton bean &apos;entityManagerFactory&apos;
2016-05-04 19:13:14,876 [main] DEBUG org.hibernate.event.internal.AbstractFlushingEventListener - Processing flush-time cascades
2016-05-04 19:13:14,876 [main] DEBUG org.hibernate.event.internal.AbstractFlushingEventListener - Dirty checking collections
2016-05-04 19:13:14,876 [main] DEBUG org.hibernate.event.internal.AbstractFlushingEventListener - Flushed: 0 insertions, 0 updates, 0 deletions to 2 objects
2016-05-04 19:13:14,876 [main] DEBUG org.hibernate.event.internal.AbstractFlushingEventListener - Flushed: 0 (re)creations, 0 updates, 0 removals to 0 collections
2016-05-04 19:13:14,876 [main] DEBUG org.hibernate.internal.util.EntityPrinter - Listing entities:
2016-05-04 19:13:14,876 [main] DEBUG org.hibernate.internal.util.EntityPrinter - com.roo.esperanza.domain.Puntuation{date=2016-04-21 20:55:12.0, scoreType=Excellent, comment=excelente usuario muchas gracias!, id=1, version=0}
2016-05-04 19:13:14,876 [main] DEBUG org.hibernate.internal.util.EntityPrinter - com.roo.esperanza.domain.Puntuation{date=2016-04-29 10:02:10.0, scoreType=Good, comment=muy buen usuario!, id=2, version=null}
2016-05-04 19:13:14,876 [main] DEBUG org.hibernate.SQL - select puntuation0_.id as id1_21_, puntuation0_.comment as comment2_21_, puntuation0_.date as date3_21_, puntuation0_.score_type as score_ty4_21_, puntuation0_.version as version5_21_ from puntuation puntuation0_
2016-05-04 19:13:14,877 [main] DEBUG org.hibernate.loader.Loader - Result set row: 0
2016-05-04 19:13:14,877 [main] DEBUG org.hibernate.loader.Loader - Result row: EntityKey[com.roo.esperanza.domain.Puntuation#1]
2016-05-04 19:13:14,877 [main] DEBUG org.hibernate.loader.Loader - Result set row: 1
2016-05-04 19:13:14,877 [main] DEBUG org.hibernate.loader.Loader - Result row: EntityKey[com.roo.esperanza.domain.Puntuation#2]
2016-05-04 19:13:14,878 [main] DEBUG org.springframework.test.context.transaction.TransactionalTestExecutionListener - No method-level @Rollback override: using default rollback [true] for test context [TestContext@1b841e7d testClass = PuntuationIntegrationTest, testInstance = com.roo.esperanza.domain.PuntuationIntegrationTest@134955bb, testMethod = testFindPuntuationEntries@PuntuationIntegrationTest, testException = java.lang.AssertionError: Find entries method for &apos;Puntuation&apos; returned an incorrect number of entries expected:&lt;0&gt; but was:&lt;2&gt;, mergedContextConfiguration = [MergedContextConfiguration@eb695e8 testClass = PuntuationIntegrationTest, locations = &apos;{classpath*:/META-INF/spring/applicationContext*.xml}&apos;, classes = &apos;{}&apos;, contextInitializerClasses = &apos;[]&apos;, activeProfiles = &apos;{}&apos;, contextLoader = &apos;org.springframework.test.context.support.DelegatingSmartContextLoader&apos;, parent = [null]]]
2016-05-04 19:13:14,878 [main] DEBUG org.springframework.orm.jpa.JpaTransactionManager - Initiating transaction rollback
2016-05-04 19:13:14,878 [main] DEBUG org.springframework.orm.jpa.JpaTransactionManager - Rolling back JPA transaction on EntityManager [org.hibernate.jpa.internal.EntityManagerImpl@45b08b17]
2016-05-04 19:13:14,878 [main] DEBUG org.hibernate.engine.transaction.spi.AbstractTransactionImpl - rolling back
2016-05-04 19:13:14,878 [main] DEBUG org.hibernate.engine.transaction.internal.jdbc.JdbcTransaction - rolled JDBC Connection
2016-05-04 19:13:14,878 [main] DEBUG org.hibernate.engine.transaction.internal.jdbc.JdbcTransaction - re-enabling autocommit
2016-05-04 19:13:14,878 [main] DEBUG org.springframework.orm.jpa.JpaTransactionManager - Closing JPA EntityManager [org.hibernate.jpa.internal.EntityManagerImpl@45b08b17] after transaction
2016-05-04 19:13:14,878 [main] DEBUG org.springframework.orm.jpa.EntityManagerFactoryUtils - Closing JPA EntityManager
2016-05-04 19:13:14,878 [main] DEBUG org.hibernate.engine.jdbc.internal.LogicalConnectionImpl - Releasing JDBC connection
2016-05-04 19:13:14,878 [main] DEBUG org.hibernate.engine.jdbc.internal.LogicalConnectionImpl - Released JDBC connection
2016-05-04 19:13:14,879 [main] INFO  org.springframework.test.context.transaction.TransactionalTestExecutionListener - Rolled back transaction after test execution for test context [TestContext@1b841e7d testClass = PuntuationIntegrationTest, testInstance = com.roo.esperanza.domain.PuntuationIntegrationTest@134955bb, testMethod = testFindPuntuationEntries@PuntuationIntegrationTest, testException = java.lang.AssertionError: Find entries method for &apos;Puntuation&apos; returned an incorrect number of entries expected:&lt;0&gt; but was:&lt;2&gt;, mergedContextConfiguration = [MergedContextConfiguration@eb695e8 testClass = PuntuationIntegrationTest, locations = &apos;{classpath*:/META-INF/spring/applicationContext*.xml}&apos;, classes = &apos;{}&apos;, contextInitializerClasses = &apos;[]&apos;, activeProfiles = &apos;{}&apos;, contextLoader = &apos;org.springframework.test.context.support.DelegatingSmartContextLoader&apos;, parent = [null]]]
2016-05-04 19:13:14,879 [main] DEBUG org.springframework.test.context.support.DirtiesContextTestExecutionListener - After test method: context [[TestContext@1b841e7d testClass = PuntuationIntegrationTest, testInstance = com.roo.esperanza.domain.PuntuationIntegrationTest@134955bb, testMethod = testFindPuntuationEntries@PuntuationIntegrationTest, testException = java.lang.AssertionError: Find entries method for &apos;Puntuation&apos; returned an incorrect number of entries expected:&lt;0&gt; but was:&lt;2&gt;, mergedContextConfiguration = [MergedContextConfiguration@eb695e8 testClass = PuntuationIntegrationTest, locations = &apos;{classpath*:/META-INF/spring/applicationContext*.xml}&apos;, classes = &apos;{}&apos;, contextInitializerClasses = &apos;[]&apos;, activeProfiles = &apos;{}&apos;, contextLoader = &apos;org.springframework.test.context.support.DelegatingSmartContextLoader&apos;, parent = [null]]]], class dirties context [false], class mode [null], method dirties context [false].
</system-out>
  </testcase>
  <testcase classname="com.roo.esperanza.domain.PuntuationIntegrationTest" name="testFindAllPuntuations" time="0.008"/>
  <testcase classname="com.roo.esperanza.domain.PuntuationIntegrationTest" name="testRemove" time="0.009">
    <error message="Row was updated or deleted by another transaction (or unsaved-value mapping was incorrect) : [com.roo.esperanza.domain.Puntuation#2]; nested exception is javax.persistence.OptimisticLockException: Row was updated or deleted by another transaction (or unsaved-value mapping was incorrect) : [com.roo.esperanza.domain.Puntuation#2]" type="org.springframework.orm.jpa.JpaOptimisticLockingFailureException">org.springframework.orm.jpa.JpaOptimisticLockingFailureException: Row was updated or deleted by another transaction (or unsaved-value mapping was incorrect) : [com.roo.esperanza.domain.Puntuation#2]; nested exception is javax.persistence.OptimisticLockException: Row was updated or deleted by another transaction (or unsaved-value mapping was incorrect) : [com.roo.esperanza.domain.Puntuation#2]
	at org.springframework.orm.jpa.EntityManagerFactoryUtils.convertJpaAccessExceptionIfPossible(EntityManagerFactoryUtils.java:310)
	at org.springframework.orm.jpa.aspectj.JpaExceptionTranslatorAspect.ajc$afterThrowing$org_springframework_orm_jpa_aspectj_JpaExceptionTranslatorAspect$1$18a1ac9(JpaExceptionTranslatorAspect.aj:33)
	at com.roo.esperanza.domain.Puntuation_Roo_Jpa_ActiveRecord.flush_aroundBody12(Puntuation_Roo_Jpa_ActiveRecord.aj:58)
	at com.roo.esperanza.domain.Puntuation_Roo_Jpa_ActiveRecord$AjcClosure13.run(Puntuation_Roo_Jpa_ActiveRecord.aj:1)
	at org.springframework.transaction.aspectj.AbstractTransactionAspect.ajc$around$org_springframework_transaction_aspectj_AbstractTransactionAspect$1$2a73e96cproceed(AbstractTransactionAspect.aj:59)
	at org.springframework.transaction.aspectj.AbstractTransactionAspect$AbstractTransactionAspect$1.proceedWithInvocation(AbstractTransactionAspect.aj:65)
	at org.springframework.transaction.interceptor.TransactionAspectSupport.invokeWithinTransaction(TransactionAspectSupport.java:260)
	at org.springframework.transaction.aspectj.AbstractTransactionAspect.ajc$around$org_springframework_transaction_aspectj_AbstractTransactionAspect$1$2a73e96c(AbstractTransactionAspect.aj:63)
	at com.roo.esperanza.domain.Puntuation_Roo_Jpa_ActiveRecord.ajc$interMethod$com_roo_esperanza_domain_Puntuation_Roo_Jpa_ActiveRecord$com_roo_esperanza_domain_Puntuation$flush(Puntuation_Roo_Jpa_ActiveRecord.aj:56)
	at com.roo.esperanza.domain.Puntuation.flush(Puntuation.java:1)
	at com.roo.esperanza.domain.PuntuationIntegrationTest_Roo_IntegrationTest.ajc$interMethod$com_roo_esperanza_domain_PuntuationIntegrationTest_Roo_IntegrationTest$com_roo_esperanza_domain_PuntuationIntegrationTest$testRemove(PuntuationIntegrationTest_Roo_IntegrationTest.aj:129)
	at com.roo.esperanza.domain.PuntuationIntegrationTest.testRemove(PuntuationIntegrationTest.java:1)
	at sun.reflect.NativeMethodAccessorImpl.invoke0(Native Method)
	at sun.reflect.NativeMethodAccessorImpl.invoke(NativeMethodAccessorImpl.java:62)
	at sun.reflect.DelegatingMethodAccessorImpl.invoke(DelegatingMethodAccessorImpl.java:43)
	at java.lang.reflect.Method.invoke(Method.java:497)
	at org.junit.runners.model.FrameworkMethod$1.runReflectiveCall(FrameworkMethod.java:47)
	at org.junit.internal.runners.model.ReflectiveCallable.run(ReflectiveCallable.java:12)
	at org.junit.runners.model.FrameworkMethod.invokeExplosively(FrameworkMethod.java:44)
	at org.junit.internal.runners.statements.InvokeMethod.evaluate(InvokeMethod.java:17)
	at org.springframework.test.context.junit4.statements.RunBeforeTestMethodCallbacks.evaluate(RunBeforeTestMethodCallbacks.java:74)
	at org.springframework.test.context.junit4.statements.RunAfterTestMethodCallbacks.evaluate(RunAfterTestMethodCallbacks.java:83)
	at org.springframework.test.context.junit4.statements.SpringRepeat.evaluate(SpringRepeat.java:72)
	at org.springframework.test.context.junit4.SpringJUnit4ClassRunner.runChild(SpringJUnit4ClassRunner.java:231)
	at org.springframework.test.context.junit4.SpringJUnit4ClassRunner.runChild(SpringJUnit4ClassRunner.java:88)
	at org.junit.runners.ParentRunner$3.run(ParentRunner.java:238)
	at org.junit.runners.ParentRunner$1.schedule(ParentRunner.java:63)
	at org.junit.runners.ParentRunner.runChildren(ParentRunner.java:236)
	at org.junit.runners.ParentRunner.access$000(ParentRunner.java:53)
	at org.junit.runners.ParentRunner$2.evaluate(ParentRunner.java:229)
	at org.springframework.test.context.junit4.statements.RunBeforeTestClassCallbacks.evaluate(RunBeforeTestClassCallbacks.java:61)
	at org.springframework.test.context.junit4.statements.RunAfterTestClassCallbacks.evaluate(RunAfterTestClassCallbacks.java:71)
	at org.junit.runners.ParentRunner.run(ParentRunner.java:309)
	at org.springframework.test.context.junit4.SpringJUnit4ClassRunner.run(SpringJUnit4ClassRunner.java:174)
	at org.apache.maven.surefire.junit4.JUnit4Provider.execute(JUnit4Provider.java:236)
	at org.apache.maven.surefire.junit4.JUnit4Provider.executeTestSet(JUnit4Provider.java:134)
	at org.apache.maven.surefire.junit4.JUnit4Provider.invoke(JUnit4Provider.java:113)
	at sun.reflect.NativeMethodAccessorImpl.invoke0(Native Method)
	at sun.reflect.NativeMethodAccessorImpl.invoke(NativeMethodAccessorImpl.java:62)
	at sun.reflect.DelegatingMethodAccessorImpl.invoke(DelegatingMethodAccessorImpl.java:43)
	at java.lang.reflect.Method.invoke(Method.java:497)
	at org.apache.maven.surefire.util.ReflectionUtils.invokeMethodWithArray(ReflectionUtils.java:189)
	at org.apache.maven.surefire.booter.ProviderFactory$ProviderProxy.invoke(ProviderFactory.java:165)
	at org.apache.maven.surefire.booter.ProviderFactory.invokeProvider(ProviderFactory.java:85)
	at org.apache.maven.surefire.booter.ForkedBooter.runSuitesInProcess(ForkedBooter.java:103)
	at org.apache.maven.surefire.booter.ForkedBooter.main(ForkedBooter.java:74)
Caused by: javax.persistence.OptimisticLockException: Row was updated or deleted by another transaction (or unsaved-value mapping was incorrect) : [com.roo.esperanza.domain.Puntuation#2]
	at org.hibernate.jpa.spi.AbstractEntityManagerImpl.wrapStaleStateException(AbstractEntityManagerImpl.java:1792)
	at org.hibernate.jpa.spi.AbstractEntityManagerImpl.convert(AbstractEntityManagerImpl.java:1705)
	at org.hibernate.jpa.spi.AbstractEntityManagerImpl.convert(AbstractEntityManagerImpl.java:1677)
	at org.hibernate.jpa.spi.AbstractEntityManagerImpl.convert(AbstractEntityManagerImpl.java:1683)
	at org.hibernate.jpa.spi.AbstractEntityManagerImpl.flush(AbstractEntityManagerImpl.java:1338)
	at sun.reflect.GeneratedMethodAccessor17.invoke(Unknown Source)
	at sun.reflect.DelegatingMethodAccessorImpl.invoke(DelegatingMethodAccessorImpl.java:43)
	at java.lang.reflect.Method.invoke(Method.java:497)
	at org.springframework.orm.jpa.SharedEntityManagerCreator$SharedEntityManagerInvocationHandler.invoke(SharedEntityManagerCreator.java:241)
	at com.sun.proxy.$Proxy42.flush(Unknown Source)
	... 44 more
Caused by: org.hibernate.StaleObjectStateException: Row was updated or deleted by another transaction (or unsaved-value mapping was incorrect) : [com.roo.esperanza.domain.Puntuation#2]
	at org.hibernate.persister.entity.AbstractEntityPersister.check(AbstractEntityPersister.java:2541)
	at org.hibernate.persister.entity.AbstractEntityPersister.delete(AbstractEntityPersister.java:3403)
	at org.hibernate.persister.entity.AbstractEntityPersister.delete(AbstractEntityPersister.java:3630)
	at org.hibernate.action.internal.EntityDeleteAction.execute(EntityDeleteAction.java:114)
	at org.hibernate.engine.spi.ActionQueue.executeActions(ActionQueue.java:463)
	at org.hibernate.engine.spi.ActionQueue.executeActions(ActionQueue.java:349)
	at org.hibernate.event.internal.AbstractFlushingEventListener.performExecutions(AbstractFlushingEventListener.java:350)
	at org.hibernate.event.internal.DefaultFlushEventListener.onFlush(DefaultFlushEventListener.java:56)
	at org.hibernate.internal.SessionImpl.flush(SessionImpl.java:1222)
	at org.hibernate.jpa.spi.AbstractEntityManagerImpl.flush(AbstractEntityManagerImpl.java:1335)
	... 49 more
</error>
    <system-out>2016-05-04 19:13:14,888 [main] DEBUG org.springframework.test.annotation.ProfileValueUtils - Retrieved @ProfileValueSourceConfiguration [null] for test class [com.roo.esperanza.domain.PuntuationIntegrationTest]
2016-05-04 19:13:14,888 [main] DEBUG org.springframework.test.annotation.ProfileValueUtils - Retrieved ProfileValueSource type [class org.springframework.test.annotation.SystemProfileValueSource] for class [com.roo.esperanza.domain.PuntuationIntegrationTest]
2016-05-04 19:13:14,888 [main] DEBUG org.springframework.beans.factory.annotation.InjectionMetadata - Processing injected method of bean &apos;com.roo.esperanza.domain.PuntuationIntegrationTest&apos;: AutowiredFieldElement for com.roo.esperanza.domain.PuntuationDataOnDemand com.roo.esperanza.domain.PuntuationIntegrationTest.dod
2016-05-04 19:13:14,888 [main] DEBUG org.springframework.beans.factory.support.DefaultListableBeanFactory - Returning cached instance of singleton bean &apos;puntuationDataOnDemand&apos;
2016-05-04 19:13:14,888 [main] DEBUG org.springframework.test.context.support.DependencyInjectionTestExecutionListener - Performing dependency injection for test context [[TestContext@1b841e7d testClass = PuntuationIntegrationTest, testInstance = com.roo.esperanza.domain.PuntuationIntegrationTest@6109d880, testMethod = [null], testException = [null], mergedContextConfiguration = [MergedContextConfiguration@eb695e8 testClass = PuntuationIntegrationTest, locations = &apos;{classpath*:/META-INF/spring/applicationContext*.xml}&apos;, classes = &apos;{}&apos;, contextInitializerClasses = &apos;[]&apos;, activeProfiles = &apos;{}&apos;, contextLoader = &apos;org.springframework.test.context.support.DelegatingSmartContextLoader&apos;, parent = [null]]]].
2016-05-04 19:13:14,888 [main] DEBUG org.springframework.test.context.CacheAwareContextLoaderDelegate - Retrieved ApplicationContext from cache with key [[MergedContextConfiguration@eb695e8 testClass = PuntuationIntegrationTest, locations = &apos;{classpath*:/META-INF/spring/applicationContext*.xml}&apos;, classes = &apos;{}&apos;, contextInitializerClasses = &apos;[]&apos;, activeProfiles = &apos;{}&apos;, contextLoader = &apos;org.springframework.test.context.support.DelegatingSmartContextLoader&apos;, parent = [null]]].
2016-05-04 19:13:14,889 [main] DEBUG org.springframework.beans.factory.annotation.InjectionMetadata - Processing injected method of bean &apos;com.roo.esperanza.domain.PuntuationIntegrationTest&apos;: AutowiredFieldElement for com.roo.esperanza.domain.PuntuationDataOnDemand com.roo.esperanza.domain.PuntuationIntegrationTest.dod
2016-05-04 19:13:14,889 [main] DEBUG org.springframework.beans.factory.support.DefaultListableBeanFactory - Returning cached instance of singleton bean &apos;puntuationDataOnDemand&apos;
2016-05-04 19:13:14,889 [main] DEBUG org.springframework.transaction.annotation.AnnotationTransactionAttributeSource - Adding transactional method &apos;PuntuationIntegrationTest.testRemove&apos; with attribute: PROPAGATION_REQUIRED,ISOLATION_DEFAULT; &apos;&apos;
2016-05-04 19:13:14,889 [main] DEBUG org.springframework.test.context.transaction.TransactionalTestExecutionListener - Explicit transaction definition [PROPAGATION_REQUIRED,ISOLATION_DEFAULT; &apos;&apos;] found for test context [TestContext@1b841e7d testClass = PuntuationIntegrationTest, testInstance = com.roo.esperanza.domain.PuntuationIntegrationTest@6109d880, testMethod = testRemove@PuntuationIntegrationTest, testException = [null], mergedContextConfiguration = [MergedContextConfiguration@eb695e8 testClass = PuntuationIntegrationTest, locations = &apos;{classpath*:/META-INF/spring/applicationContext*.xml}&apos;, classes = &apos;{}&apos;, contextInitializerClasses = &apos;[]&apos;, activeProfiles = &apos;{}&apos;, contextLoader = &apos;org.springframework.test.context.support.DelegatingSmartContextLoader&apos;, parent = [null]]]
2016-05-04 19:13:14,889 [main] DEBUG org.springframework.test.context.CacheAwareContextLoaderDelegate - Retrieved ApplicationContext from cache with key [[MergedContextConfiguration@eb695e8 testClass = PuntuationIntegrationTest, locations = &apos;{classpath*:/META-INF/spring/applicationContext*.xml}&apos;, classes = &apos;{}&apos;, contextInitializerClasses = &apos;[]&apos;, activeProfiles = &apos;{}&apos;, contextLoader = &apos;org.springframework.test.context.support.DelegatingSmartContextLoader&apos;, parent = [null]]].
2016-05-04 19:13:14,889 [main] DEBUG org.springframework.beans.factory.support.DefaultListableBeanFactory - Returning cached instance of singleton bean &apos;transactionManager&apos;
2016-05-04 19:13:14,889 [main] DEBUG org.springframework.orm.jpa.JpaTransactionManager - Creating new transaction with name [testRemove]: PROPAGATION_REQUIRED,ISOLATION_DEFAULT; &apos;&apos;
2016-05-04 19:13:14,889 [main] DEBUG org.springframework.orm.jpa.JpaTransactionManager - Opened new EntityManager [org.hibernate.jpa.internal.EntityManagerImpl@4c9ef9c9] for JPA transaction
2016-05-04 19:13:14,889 [main] DEBUG org.hibernate.engine.transaction.spi.AbstractTransactionImpl - begin
2016-05-04 19:13:14,889 [main] DEBUG org.hibernate.engine.jdbc.internal.LogicalConnectionImpl - Obtaining JDBC connection
2016-05-04 19:13:14,890 [main] DEBUG org.hibernate.engine.jdbc.internal.LogicalConnectionImpl - Obtained JDBC connection
2016-05-04 19:13:14,890 [main] DEBUG org.hibernate.engine.transaction.internal.jdbc.JdbcTransaction - initial autocommit status: true
2016-05-04 19:13:14,890 [main] DEBUG org.hibernate.engine.transaction.internal.jdbc.JdbcTransaction - disabling autocommit
2016-05-04 19:13:14,890 [main] DEBUG org.springframework.orm.jpa.JpaTransactionManager - Not exposing JPA transaction [org.hibernate.jpa.internal.EntityManagerImpl@4c9ef9c9] as JDBC transaction because JpaDialect [org.springframework.orm.jpa.DefaultJpaDialect@373052b5] does not support JDBC Connection retrieval
2016-05-04 19:13:14,890 [main] DEBUG org.springframework.test.context.transaction.TransactionalTestExecutionListener - No method-level @Rollback override: using default rollback [true] for test context [TestContext@1b841e7d testClass = PuntuationIntegrationTest, testInstance = com.roo.esperanza.domain.PuntuationIntegrationTest@6109d880, testMethod = testRemove@PuntuationIntegrationTest, testException = [null], mergedContextConfiguration = [MergedContextConfiguration@eb695e8 testClass = PuntuationIntegrationTest, locations = &apos;{classpath*:/META-INF/spring/applicationContext*.xml}&apos;, classes = &apos;{}&apos;, contextInitializerClasses = &apos;[]&apos;, activeProfiles = &apos;{}&apos;, contextLoader = &apos;org.springframework.test.context.support.DelegatingSmartContextLoader&apos;, parent = [null]]]
2016-05-04 19:13:14,890 [main] INFO  org.springframework.test.context.transaction.TransactionalTestExecutionListener - Began transaction (9): transaction manager [org.springframework.orm.jpa.JpaTransactionManager@7b2bf745]; rollback [true]
2016-05-04 19:13:14,890 [main] DEBUG org.springframework.beans.factory.annotation.InjectionMetadata - Processing injected method of bean &apos;com.roo.esperanza.domain.Puntuation&apos;: PersistenceElement for transient javax.persistence.EntityManager com.roo.esperanza.domain.Puntuation.entityManager
2016-05-04 19:13:14,890 [main] DEBUG org.springframework.beans.factory.support.DefaultListableBeanFactory - Returning cached instance of singleton bean &apos;entityManagerFactory&apos;
2016-05-04 19:13:14,891 [main] DEBUG org.hibernate.SQL - select puntuation0_.id as id1_21_, puntuation0_.comment as comment2_21_, puntuation0_.date as date3_21_, puntuation0_.score_type as score_ty4_21_, puntuation0_.version as version5_21_ from puntuation puntuation0_ limit ?
2016-05-04 19:13:14,891 [main] DEBUG org.hibernate.loader.Loader - Result set row: 0
2016-05-04 19:13:14,891 [main] DEBUG org.hibernate.loader.Loader - Result row: EntityKey[com.roo.esperanza.domain.Puntuation#1]
2016-05-04 19:13:14,891 [main] DEBUG org.springframework.beans.factory.annotation.InjectionMetadata - Processing injected method of bean &apos;com.roo.esperanza.domain.Puntuation&apos;: PersistenceElement for transient javax.persistence.EntityManager com.roo.esperanza.domain.Puntuation.entityManager
2016-05-04 19:13:14,891 [main] DEBUG org.springframework.beans.factory.support.DefaultListableBeanFactory - Returning cached instance of singleton bean &apos;entityManagerFactory&apos;
2016-05-04 19:13:14,891 [main] DEBUG org.hibernate.loader.Loader - Result set row: 1
2016-05-04 19:13:14,892 [main] DEBUG org.hibernate.loader.Loader - Result row: EntityKey[com.roo.esperanza.domain.Puntuation#2]
2016-05-04 19:13:14,892 [main] DEBUG org.springframework.beans.factory.annotation.InjectionMetadata - Processing injected method of bean &apos;com.roo.esperanza.domain.Puntuation&apos;: PersistenceElement for transient javax.persistence.EntityManager com.roo.esperanza.domain.Puntuation.entityManager
2016-05-04 19:13:14,892 [main] DEBUG org.springframework.beans.factory.support.DefaultListableBeanFactory - Returning cached instance of singleton bean &apos;entityManagerFactory&apos;
2016-05-04 19:13:14,892 [main] DEBUG org.hibernate.engine.internal.TwoPhaseLoad - Resolving associations for [com.roo.esperanza.domain.Puntuation#1]
2016-05-04 19:13:14,892 [main] DEBUG org.hibernate.engine.internal.TwoPhaseLoad - Done materializing entity [com.roo.esperanza.domain.Puntuation#1]
2016-05-04 19:13:14,892 [main] DEBUG org.hibernate.engine.internal.TwoPhaseLoad - Resolving associations for [com.roo.esperanza.domain.Puntuation#2]
2016-05-04 19:13:14,892 [main] DEBUG org.hibernate.engine.internal.TwoPhaseLoad - Done materializing entity [com.roo.esperanza.domain.Puntuation#2]
2016-05-04 19:13:14,892 [main] DEBUG org.springframework.beans.factory.annotation.InjectionMetadata - Processing injected method of bean &apos;com.roo.esperanza.domain.Puntuation&apos;: PersistenceElement for transient javax.persistence.EntityManager com.roo.esperanza.domain.Puntuation.entityManager
2016-05-04 19:13:14,892 [main] DEBUG org.springframework.beans.factory.support.DefaultListableBeanFactory - Returning cached instance of singleton bean &apos;entityManagerFactory&apos;
2016-05-04 19:13:14,892 [main] DEBUG org.springframework.beans.factory.annotation.InjectionMetadata - Processing injected method of bean &apos;com.roo.esperanza.domain.Puntuation&apos;: PersistenceElement for transient javax.persistence.EntityManager com.roo.esperanza.domain.Puntuation.entityManager
2016-05-04 19:13:14,892 [main] DEBUG org.springframework.beans.factory.support.DefaultListableBeanFactory - Returning cached instance of singleton bean &apos;entityManagerFactory&apos;
2016-05-04 19:13:14,893 [main] DEBUG org.springframework.transaction.annotation.AnnotationTransactionAttributeSource - Adding transactional method &apos;Puntuation.remove&apos; with attribute: PROPAGATION_REQUIRED,ISOLATION_DEFAULT; &apos;&apos;
2016-05-04 19:13:14,893 [main] DEBUG org.springframework.beans.factory.support.DefaultListableBeanFactory - Returning cached instance of singleton bean &apos;transactionManager&apos;
2016-05-04 19:13:14,893 [main] DEBUG org.springframework.orm.jpa.JpaTransactionManager - Found thread-bound EntityManager [org.hibernate.jpa.internal.EntityManagerImpl@4c9ef9c9] for JPA transaction
2016-05-04 19:13:14,893 [main] DEBUG org.springframework.orm.jpa.JpaTransactionManager - Participating in existing transaction
2016-05-04 19:13:14,893 [main] DEBUG org.springframework.beans.factory.support.DefaultListableBeanFactory - Returning cached instance of singleton bean &apos;transactionManager&apos;
2016-05-04 19:13:14,893 [main] DEBUG org.springframework.orm.jpa.JpaTransactionManager - Found thread-bound EntityManager [org.hibernate.jpa.internal.EntityManagerImpl@4c9ef9c9] for JPA transaction
2016-05-04 19:13:14,893 [main] DEBUG org.springframework.orm.jpa.JpaTransactionManager - Participating in existing transaction
2016-05-04 19:13:14,893 [main] DEBUG org.hibernate.event.internal.AbstractFlushingEventListener - Processing flush-time cascades
2016-05-04 19:13:14,893 [main] DEBUG org.hibernate.event.internal.AbstractFlushingEventListener - Dirty checking collections
2016-05-04 19:13:14,893 [main] DEBUG org.hibernate.event.internal.AbstractFlushingEventListener - Flushed: 0 insertions, 0 updates, 1 deletions to 2 objects
2016-05-04 19:13:14,893 [main] DEBUG org.hibernate.event.internal.AbstractFlushingEventListener - Flushed: 0 (re)creations, 0 updates, 0 removals to 0 collections
2016-05-04 19:13:14,893 [main] DEBUG org.hibernate.internal.util.EntityPrinter - Listing entities:
2016-05-04 19:13:14,893 [main] DEBUG org.hibernate.internal.util.EntityPrinter - com.roo.esperanza.domain.Puntuation{date=2016-04-21 20:55:12.0, scoreType=Excellent, comment=excelente usuario muchas gracias!, id=1, version=0}
2016-05-04 19:13:14,893 [main] DEBUG org.hibernate.internal.util.EntityPrinter - com.roo.esperanza.domain.Puntuation{date=2016-04-29 10:02:10.0, scoreType=Good, comment=muy buen usuario!, id=2, version=null}
2016-05-04 19:13:14,893 [main] DEBUG org.hibernate.SQL - delete from puntuation where id=? and version=?
2016-05-04 19:13:14,894 [main] DEBUG org.hibernate.jpa.spi.AbstractEntityManagerImpl - Mark transaction for rollback
2016-05-04 19:13:14,894 [main] DEBUG org.springframework.orm.jpa.JpaTransactionManager - Participating transaction failed - marking existing transaction as rollback-only
2016-05-04 19:13:14,894 [main] DEBUG org.springframework.orm.jpa.JpaTransactionManager - Setting JPA transaction on EntityManager [org.hibernate.jpa.internal.EntityManagerImpl@4c9ef9c9] rollback-only
2016-05-04 19:13:14,894 [main] DEBUG org.springframework.test.context.transaction.TransactionalTestExecutionListener - No method-level @Rollback override: using default rollback [true] for test context [TestContext@1b841e7d testClass = PuntuationIntegrationTest, testInstance = com.roo.esperanza.domain.PuntuationIntegrationTest@6109d880, testMethod = testRemove@PuntuationIntegrationTest, testException = org.springframework.orm.jpa.JpaOptimisticLockingFailureException: Row was updated or deleted by another transaction (or unsaved-value mapping was incorrect) : [com.roo.esperanza.domain.Puntuation#2]; nested exception is javax.persistence.OptimisticLockException: Row was updated or deleted by another transaction (or unsaved-value mapping was incorrect) : [com.roo.esperanza.domain.Puntuation#2], mergedContextConfiguration = [MergedContextConfiguration@eb695e8 testClass = PuntuationIntegrationTest, locations = &apos;{classpath*:/META-INF/spring/applicationContext*.xml}&apos;, classes = &apos;{}&apos;, contextInitializerClasses = &apos;[]&apos;, activeProfiles = &apos;{}&apos;, contextLoader = &apos;org.springframework.test.context.support.DelegatingSmartContextLoader&apos;, parent = [null]]]
2016-05-04 19:13:14,895 [main] DEBUG org.springframework.orm.jpa.JpaTransactionManager - Initiating transaction rollback
2016-05-04 19:13:14,895 [main] DEBUG org.springframework.orm.jpa.JpaTransactionManager - Rolling back JPA transaction on EntityManager [org.hibernate.jpa.internal.EntityManagerImpl@4c9ef9c9]
2016-05-04 19:13:14,895 [main] DEBUG org.hibernate.engine.transaction.spi.AbstractTransactionImpl - rolling back
2016-05-04 19:13:14,895 [main] DEBUG org.hibernate.engine.transaction.internal.jdbc.JdbcTransaction - rolled JDBC Connection
2016-05-04 19:13:14,895 [main] DEBUG org.hibernate.engine.transaction.internal.jdbc.JdbcTransaction - re-enabling autocommit
2016-05-04 19:13:14,895 [main] DEBUG org.springframework.orm.jpa.JpaTransactionManager - Closing JPA EntityManager [org.hibernate.jpa.internal.EntityManagerImpl@4c9ef9c9] after transaction
2016-05-04 19:13:14,895 [main] DEBUG org.springframework.orm.jpa.EntityManagerFactoryUtils - Closing JPA EntityManager
2016-05-04 19:13:14,895 [main] DEBUG org.hibernate.engine.jdbc.internal.LogicalConnectionImpl - Releasing JDBC connection
2016-05-04 19:13:14,895 [main] DEBUG org.hibernate.engine.jdbc.internal.LogicalConnectionImpl - Released JDBC connection
2016-05-04 19:13:14,895 [main] INFO  org.springframework.test.context.transaction.TransactionalTestExecutionListener - Rolled back transaction after test execution for test context [TestContext@1b841e7d testClass = PuntuationIntegrationTest, testInstance = com.roo.esperanza.domain.PuntuationIntegrationTest@6109d880, testMethod = testRemove@PuntuationIntegrationTest, testException = org.springframework.orm.jpa.JpaOptimisticLockingFailureException: Row was updated or deleted by another transaction (or unsaved-value mapping was incorrect) : [com.roo.esperanza.domain.Puntuation#2]; nested exception is javax.persistence.OptimisticLockException: Row was updated or deleted by another transaction (or unsaved-value mapping was incorrect) : [com.roo.esperanza.domain.Puntuation#2], mergedContextConfiguration = [MergedContextConfiguration@eb695e8 testClass = PuntuationIntegrationTest, locations = &apos;{classpath*:/META-INF/spring/applicationContext*.xml}&apos;, classes = &apos;{}&apos;, contextInitializerClasses = &apos;[]&apos;, activeProfiles = &apos;{}&apos;, contextLoader = &apos;org.springframework.test.context.support.DelegatingSmartContextLoader&apos;, parent = [null]]]
2016-05-04 19:13:14,896 [main] DEBUG org.springframework.test.context.support.DirtiesContextTestExecutionListener - After test method: context [[TestContext@1b841e7d testClass = PuntuationIntegrationTest, testInstance = com.roo.esperanza.domain.PuntuationIntegrationTest@6109d880, testMethod = testRemove@PuntuationIntegrationTest, testException = org.springframework.orm.jpa.JpaOptimisticLockingFailureException: Row was updated or deleted by another transaction (or unsaved-value mapping was incorrect) : [com.roo.esperanza.domain.Puntuation#2]; nested exception is javax.persistence.OptimisticLockException: Row was updated or deleted by another transaction (or unsaved-value mapping was incorrect) : [com.roo.esperanza.domain.Puntuation#2], mergedContextConfiguration = [MergedContextConfiguration@eb695e8 testClass = PuntuationIntegrationTest, locations = &apos;{classpath*:/META-INF/spring/applicationContext*.xml}&apos;, classes = &apos;{}&apos;, contextInitializerClasses = &apos;[]&apos;, activeProfiles = &apos;{}&apos;, contextLoader = &apos;org.springframework.test.context.support.DelegatingSmartContextLoader&apos;, parent = [null]]]], class dirties context [false], class mode [null], method dirties context [false].
</system-out>
  </testcase>
</testsuite>